solid 
   facet normal -0.000000e+00 9.238800e-01 3.826822e-01
      outer loop
         vertex -5.000000e+00 -3.828033e+01 1.506967e+01
         vertex -5.000000e+00 -3.850000e+01 1.560000e+01
         vertex 1.250555e-14 -3.850000e+01 1.560000e+01
      endloop
   endfacet
   facet normal 0.000000e+00 -3.826822e-01 9.238800e-01
      outer loop
         vertex 1.401284e-14 -3.721967e+01 1.506967e+01
         vertex -5.000000e+00 -3.721967e+01 1.506967e+01
         vertex -5.000000e+00 -3.775000e+01 1.485000e+01
      endloop
   endfacet
   facet normal 0.000000e+00 -9.238800e-01 -3.826822e-01
      outer loop
         vertex 1.099826e-14 -3.721967e+01 1.613033e+01
         vertex -5.000000e+00 -3.721967e+01 1.613033e+01
         vertex -5.000000e+00 -3.700000e+01 1.560000e+01
      endloop
   endfacet
   facet normal 0.000000e+00 3.826822e-01 -9.238800e-01
      outer loop
         vertex 1.099826e-14 -3.828033e+01 1.613033e+01
         vertex -5.000000e+00 -3.828033e+01 1.613033e+01
         vertex -5.000000e+00 -3.775000e+01 1.635000e+01
      endloop
   endfacet
   facet normal 0.000000e+00 9.238800e-01 -3.826822e-01
      outer loop
         vertex -5.000000e+00 -3.828033e+01 1.613033e+01
         vertex 1.250555e-14 -3.850000e+01 1.560000e+01
         vertex -5.000000e+00 -3.850000e+01 1.560000e+01
      endloop
   endfacet
   facet normal -0.000000e+00 -3.826822e-01 -9.238800e-01
      outer loop
         vertex -5.000000e+00 -3.721967e+01 1.613033e+01
         vertex 1.099826e-14 -3.721967e+01 1.613033e+01
         vertex 1.037392e-14 -3.775000e+01 1.635000e+01
      endloop
   endfacet
   facet normal 0.000000e+00 -9.238800e-01 3.826822e-01
      outer loop
         vertex -5.000000e+00 -3.721967e+01 1.506967e+01
         vertex 1.401284e-14 -3.721967e+01 1.506967e+01
         vertex 1.250555e-14 -3.700000e+01 1.560000e+01
      endloop
   endfacet
   facet normal 0.000000e+00 3.826822e-01 9.238800e-01
      outer loop
         vertex -5.000000e+00 -3.828033e+01 1.506967e+01
         vertex 1.401284e-14 -3.828033e+01 1.506967e+01
         vertex 1.463718e-14 -3.775000e+01 1.485000e+01
      endloop
   endfacet
   facet normal -0.000000e+00 9.238800e-01 3.826822e-01
      outer loop
         vertex 1.401284e-14 -3.828033e+01 1.506967e+01
         vertex -5.000000e+00 -3.828033e+01 1.506967e+01
         vertex 1.250555e-14 -3.850000e+01 1.560000e+01
      endloop
   endfacet
   facet normal 0.000000e+00 3.826822e-01 -9.238800e-01
      outer loop
         vertex 1.037392e-14 -3.775000e+01 1.635000e+01
         vertex 1.099826e-14 -3.828033e+01 1.613033e+01
         vertex -5.000000e+00 -3.775000e+01 1.635000e+01
      endloop
   endfacet
   facet normal 0.000000e+00 -3.826822e-01 -9.238800e-01
      outer loop
         vertex -5.000000e+00 -3.775000e+01 1.635000e+01
         vertex -5.000000e+00 -3.721967e+01 1.613033e+01
         vertex 1.037392e-14 -3.775000e+01 1.635000e+01
      endloop
   endfacet
   facet normal -0.000000e+00 3.826822e-01 9.238800e-01
      outer loop
         vertex 1.463718e-14 -3.775000e+01 1.485000e+01
         vertex -5.000000e+00 -3.775000e+01 1.485000e+01
         vertex -5.000000e+00 -3.828033e+01 1.506967e+01
      endloop
   endfacet
   facet normal 0.000000e+00 9.238800e-01 -3.826822e-01
      outer loop
         vertex -5.000000e+00 -3.828033e+01 1.613033e+01
         vertex 1.099826e-14 -3.828033e+01 1.613033e+01
         vertex 1.250555e-14 -3.850000e+01 1.560000e+01
      endloop
   endfacet
   facet normal 0.000000e+00 -3.826822e-01 9.238800e-01
      outer loop
         vertex -5.000000e+00 -3.775000e+01 1.485000e+01
         vertex 1.463718e-14 -3.775000e+01 1.485000e+01
         vertex 1.401284e-14 -3.721967e+01 1.506967e+01
      endloop
   endfacet
   facet normal 0.000000e+00 -9.238800e-01 3.826822e-01
      outer loop
         vertex -5.000000e+00 -3.700000e+01 1.560000e+01
         vertex -5.000000e+00 -3.721967e+01 1.506967e+01
         vertex 1.250555e-14 -3.700000e+01 1.560000e+01
      endloop
   endfacet
   facet normal -0.000000e+00 -9.238800e-01 -3.826822e-01
      outer loop
         vertex -5.000000e+00 -3.700000e+01 1.560000e+01
         vertex 1.250555e-14 -3.700000e+01 1.560000e+01
         vertex 1.099826e-14 -3.721967e+01 1.613033e+01
      endloop
   endfacet
   facet normal 1.000000e+00 -0.000000e+00 2.842170e-15
      outer loop
         vertex 1.918465e-14 -2.675609e+01 1.325000e+01
         vertex 2.557954e-14 -3.125609e+01 1.100000e+01
         vertex 2.557954e-14 -8.000000e+00 1.100000e+01
      endloop
   endfacet
   facet normal 1.000000e+00 6.413180e-21 2.842170e-15
      outer loop
         vertex 2.415845e-14 -3.175609e+01 1.150000e+01
         vertex 2.486900e-14 -3.168910e+01 1.125000e+01
         vertex 2.538915e-14 -3.150609e+01 1.106699e+01
      endloop
   endfacet
   facet normal 1.000000e+00 3.453344e-23 2.842172e-15
      outer loop
         vertex 1.814409e-14 -2.763997e+01 1.361612e+01
         vertex 2.174261e-14 -3.189006e+01 1.235000e+01
         vertex 2.316369e-14 -3.175609e+01 1.185000e+01
      endloop
   endfacet
   facet normal 1.000000e+00 -4.281029e-22 2.842172e-15
      outer loop
         vertex 1.311979e-14 -2.763997e+01 1.538388e+01
         vertex 2.032152e-14 -3.275609e+01 1.285000e+01
         vertex 2.070230e-14 -3.225609e+01 1.271603e+01
      endloop
   endfacet
   facet normal 1.000000e+00 2.010172e-22 2.842171e-15
      outer loop
         vertex 1.463718e-14 -3.775000e+01 1.485000e+01
         vertex 1.927438e-14 -3.912500e+01 1.321843e+01
         vertex 2.032152e-14 -3.775000e+01 1.285000e+01
      endloop
   endfacet
   facet normal 1.000000e+00 -0.000000e+00 2.842171e-15
      outer loop
         vertex 1.250555e-14 -3.850000e+01 1.560000e+01
         vertex 1.250555e-14 -4.050000e+01 1.560000e+01
         vertex 1.641354e-14 -4.013157e+01 1.422500e+01
      endloop
   endfacet
   facet normal 1.000000e+00 3.471449e-22 2.842174e-15
      outer loop
         vertex 1.099826e-14 -3.828033e+01 1.613033e+01
         vertex 5.736723e-15 -3.912500e+01 1.798157e+01
         vertex 8.597567e-15 -4.013157e+01 1.697500e+01
      endloop
   endfacet
   facet normal 1.000000e+00 0.000000e+00 2.842171e-15
      outer loop
         vertex 1.207923e-14 -2.675609e+01 1.575000e+01
         vertex 4.689582e-15 -8.000000e+00 1.835000e+01
         vertex 4.689582e-15 -3.775000e+01 1.835000e+01
      endloop
   endfacet
   facet normal 1.000000e+00 -5.142558e-21 2.842162e-15
      outer loop
         vertex 4.689582e-15 -8.000000e+00 1.835000e+01
         vertex 6.110668e-15 -7.133975e+00 1.785000e+01
         vertex 5.070361e-15 -7.500000e+00 1.821603e+01
      endloop
   endfacet
   facet normal 1.000000e+00 -2.314137e-21 2.842172e-15
      outer loop
         vertex 2.557954e-14 -8.000000e+00 1.100000e+01
         vertex 2.415845e-14 -7.133975e+00 1.150000e+01
         vertex 2.273737e-14 -7.000000e+00 1.200000e+01
      endloop
   endfacet
   facet normal 1.000000e+00 -3.702625e-21 2.842175e-15
      outer loop
         vertex 2.415845e-14 -7.133975e+00 1.150000e+01
         vertex 2.557954e-14 -8.000000e+00 1.100000e+01
         vertex 2.519876e-14 -7.500000e+00 1.113398e+01
      endloop
   endfacet
   facet normal 1.000000e+00 0.000000e+00 2.842173e-15
      outer loop
         vertex 1.918465e-14 -1.200000e+01 1.325000e+01
         vertex 1.814409e-14 -2.587220e+01 1.361612e+01
         vertex 1.918465e-14 -2.675609e+01 1.325000e+01
      endloop
   endfacet
   facet normal 1.000000e+00 -0.000000e+00 2.842171e-15
      outer loop
         vertex 1.311979e-14 -1.288388e+01 1.538388e+01
         vertex 1.311979e-14 -2.587220e+01 1.538388e+01
         vertex 1.563194e-14 -2.550609e+01 1.450000e+01
      endloop
   endfacet
   facet normal 1.000000e+00 -1.570945e-23 2.842171e-15
      outer loop
         vertex 4.689582e-15 -3.775000e+01 1.835000e+01
         vertex 1.311979e-14 -2.763997e+01 1.538388e+01
         vertex 1.207923e-14 -2.675609e+01 1.575000e+01
      endloop
   endfacet
   facet normal 1.000000e+00 0.000000e+00 2.842170e-15
      outer loop
         vertex 1.814409e-14 -2.587220e+01 1.361612e+01
         vertex 1.814409e-14 -1.288388e+01 1.361612e+01
         vertex 1.563194e-14 -1.325000e+01 1.450000e+01
      endloop
   endfacet
   facet normal 1.000000e+00 5.492854e-22 2.842171e-15
      outer loop
         vertex 2.557954e-14 -8.000000e+00 1.100000e+01
         vertex 1.814409e-14 -1.111612e+01 1.361612e+01
         vertex 1.918465e-14 -1.200000e+01 1.325000e+01
      endloop
   endfacet
   facet normal 1.000000e+00 -1.795046e-22 2.842171e-15
      outer loop
         vertex 7.531753e-15 -7.000000e+00 1.735000e+01
         vertex 1.311979e-14 -1.111612e+01 1.538388e+01
         vertex 1.563194e-14 -1.075000e+01 1.450000e+01
      endloop
   endfacet
   facet normal 1.000000e+00 -1.191572e-22 2.842171e-15
      outer loop
         vertex 4.689582e-15 -8.000000e+00 1.835000e+01
         vertex 1.311979e-14 -1.288388e+01 1.538388e+01
         vertex 1.207923e-14 -1.200000e+01 1.575000e+01
      endloop
   endfacet
   facet normal 1.000000e+00 1.242898e-21 2.842169e-15
      outer loop
         vertex 1.641354e-14 -4.013157e+01 1.422500e+01
         vertex 1.401284e-14 -3.828033e+01 1.506967e+01
         vertex 1.250555e-14 -3.850000e+01 1.560000e+01
      endloop
   endfacet
   facet normal 1.000000e+00 1.667349e-21 2.842171e-15
      outer loop
         vertex 2.032152e-14 -3.775000e+01 1.285000e+01
         vertex 1.401284e-14 -3.721967e+01 1.506967e+01
         vertex 1.463718e-14 -3.775000e+01 1.485000e+01
      endloop
   endfacet
   facet normal 1.000000e+00 -3.176908e-21 2.842166e-15
      outer loop
         vertex 2.032152e-14 -3.275609e+01 1.285000e+01
         vertex 1.099826e-14 -3.721967e+01 1.613033e+01
         vertex 1.250555e-14 -3.700000e+01 1.560000e+01
      endloop
   endfacet
   facet normal 1.000000e+00 1.778041e-21 2.842174e-15
      outer loop
         vertex 5.736723e-15 -3.912500e+01 1.798157e+01
         vertex 1.099826e-14 -3.828033e+01 1.613033e+01
         vertex 1.037392e-14 -3.775000e+01 1.635000e+01
      endloop
   endfacet
   facet normal 1.000000e+00 -0.000000e+00 2.842170e-15
      outer loop
         vertex 1.918465e-14 -1.200000e+01 1.325000e+01
         vertex 1.918465e-14 -2.675609e+01 1.325000e+01
         vertex 2.557954e-14 -8.000000e+00 1.100000e+01
      endloop
   endfacet
   facet normal 1.000000e+00 -4.694723e-21 2.842164e-15
      outer loop
         vertex 2.557954e-14 -3.125609e+01 1.100000e+01
         vertex 2.415845e-14 -3.175609e+01 1.150000e+01
         vertex 2.538915e-14 -3.150609e+01 1.106699e+01
      endloop
   endfacet
   facet normal 1.000000e+00 -8.847475e-25 2.842171e-15
      outer loop
         vertex 1.563194e-14 -2.800609e+01 1.450000e+01
         vertex 1.311979e-14 -2.763997e+01 1.538388e+01
         vertex 2.070230e-14 -3.225609e+01 1.271603e+01
      endloop
   endfacet
   facet normal 1.000000e+00 -0.000000e+00 2.842171e-15
      outer loop
         vertex 8.597567e-15 -4.013157e+01 1.697500e+01
         vertex 1.250555e-14 -4.050000e+01 1.560000e+01
         vertex 1.250555e-14 -3.850000e+01 1.560000e+01
      endloop
   endfacet
   facet normal 1.000000e+00 -5.785342e-22 2.842170e-15
      outer loop
         vertex 7.531753e-15 -7.000000e+00 1.735000e+01
         vertex 6.110668e-15 -7.133975e+00 1.785000e+01
         vertex 4.689582e-15 -8.000000e+00 1.835000e+01
      endloop
   endfacet
   facet normal 1.000000e+00 0.000000e+00 2.842171e-15
      outer loop
         vertex 1.563194e-14 -1.325000e+01 1.450000e+01
         vertex 1.311979e-14 -1.288388e+01 1.538388e+01
         vertex 1.563194e-14 -2.550609e+01 1.450000e+01
      endloop
   endfacet
   facet normal 1.000000e+00 0.000000e+00 2.842170e-15
      outer loop
         vertex 1.563194e-14 -2.550609e+01 1.450000e+01
         vertex 1.814409e-14 -2.587220e+01 1.361612e+01
         vertex 1.563194e-14 -1.325000e+01 1.450000e+01
      endloop
   endfacet
   facet normal 1.000000e+00 -4.221971e-23 2.842171e-15
      outer loop
         vertex 2.273737e-14 -7.000000e+00 1.200000e+01
         vertex 7.531753e-15 -7.000000e+00 1.735000e+01
         vertex 1.563194e-14 -1.075000e+01 1.450000e+01
      endloop
   endfacet
   facet normal 1.000000e+00 0.000000e+00 2.842171e-15
      outer loop
         vertex 1.311979e-14 -2.587220e+01 1.538388e+01
         vertex 1.311979e-14 -1.288388e+01 1.538388e+01
         vertex 4.689582e-15 -8.000000e+00 1.835000e+01
      endloop
   endfacet
   facet normal 1.000000e+00 -1.016444e-21 2.842169e-15
      outer loop
         vertex 1.401284e-14 -3.721967e+01 1.506967e+01
         vertex 2.032152e-14 -3.275609e+01 1.285000e+01
         vertex 1.250555e-14 -3.700000e+01 1.560000e+01
      endloop
   endfacet
   facet normal 1.000000e+00 1.742469e-21 2.842170e-15
      outer loop
         vertex 2.316369e-14 -3.175609e+01 1.185000e+01
         vertex 2.415845e-14 -3.175609e+01 1.150000e+01
         vertex 2.557954e-14 -3.125609e+01 1.100000e+01
      endloop
   endfacet
   facet normal 1.000000e+00 1.081077e-22 2.842170e-15
      outer loop
         vertex 1.311979e-14 -1.111612e+01 1.538388e+01
         vertex 7.531753e-15 -7.000000e+00 1.735000e+01
         vertex 4.689582e-15 -8.000000e+00 1.835000e+01
      endloop
   endfacet
   facet normal 1.000000e+00 0.000000e+00 2.842171e-15
      outer loop
         vertex 2.032152e-14 -3.775000e+01 1.285000e+01
         vertex 2.032152e-14 -3.275609e+01 1.285000e+01
         vertex 1.401284e-14 -3.721967e+01 1.506967e+01
      endloop
   endfacet
   facet normal 1.000000e+00 5.615087e-23 2.842171e-15
      outer loop
         vertex 1.563194e-14 -2.800609e+01 1.450000e+01
         vertex 2.070230e-14 -3.225609e+01 1.271603e+01
         vertex 2.174261e-14 -3.189006e+01 1.235000e+01
      endloop
   endfacet
   facet normal 1.000000e+00 -2.229034e-21 2.842171e-15
      outer loop
         vertex 1.037392e-14 -3.775000e+01 1.635000e+01
         vertex 4.689582e-15 -3.775000e+01 1.835000e+01
         vertex 5.736723e-15 -3.912500e+01 1.798157e+01
      endloop
   endfacet
   facet normal 1.000000e+00 -5.216334e-22 2.842172e-15
      outer loop
         vertex 2.557954e-14 -3.125609e+01 1.100000e+01
         vertex 1.918465e-14 -2.675609e+01 1.325000e+01
         vertex 1.814409e-14 -2.763997e+01 1.361612e+01
      endloop
   endfacet
   facet normal 1.000000e+00 0.000000e+00 2.842173e-15
      outer loop
         vertex 1.814409e-14 -2.587220e+01 1.361612e+01
         vertex 1.918465e-14 -1.200000e+01 1.325000e+01
         vertex 1.814409e-14 -1.288388e+01 1.361612e+01
      endloop
   endfacet
   facet normal 1.000000e+00 2.640040e-23 2.842171e-15
      outer loop
         vertex 4.689582e-15 -8.000000e+00 1.835000e+01
         vertex 1.207923e-14 -1.200000e+01 1.575000e+01
         vertex 1.311979e-14 -1.111612e+01 1.538388e+01
      endloop
   endfacet
   facet normal 1.000000e+00 -3.176815e-21 2.842171e-15
      outer loop
         vertex 4.689582e-15 -3.775000e+01 1.835000e+01
         vertex 1.037392e-14 -3.775000e+01 1.635000e+01
         vertex 1.099826e-14 -3.721967e+01 1.613033e+01
      endloop
   endfacet
   facet normal 1.000000e+00 9.457120e-22 2.842170e-15
      outer loop
         vertex 2.557954e-14 -3.125609e+01 1.100000e+01
         vertex 1.814409e-14 -2.763997e+01 1.361612e+01
         vertex 2.316369e-14 -3.175609e+01 1.185000e+01
      endloop
   endfacet
   facet normal 1.000000e+00 2.642608e-22 2.842170e-15
      outer loop
         vertex 1.099826e-14 -3.721967e+01 1.613033e+01
         vertex 2.032152e-14 -3.275609e+01 1.285000e+01
         vertex 1.311979e-14 -2.763997e+01 1.538388e+01
      endloop
   endfacet
   facet normal 1.000000e+00 -2.240631e-21 2.842168e-15
      outer loop
         vertex 1.250555e-14 -3.850000e+01 1.560000e+01
         vertex 1.099826e-14 -3.828033e+01 1.613033e+01
         vertex 8.597567e-15 -4.013157e+01 1.697500e+01
      endloop
   endfacet
   facet normal 1.000000e+00 3.699563e-22 2.842172e-15
      outer loop
         vertex 1.099826e-14 -3.721967e+01 1.613033e+01
         vertex 1.311979e-14 -2.763997e+01 1.538388e+01
         vertex 4.689582e-15 -3.775000e+01 1.835000e+01
      endloop
   endfacet
   facet normal 1.000000e+00 3.141922e-22 2.842171e-15
      outer loop
         vertex 1.927438e-14 -3.912500e+01 1.321843e+01
         vertex 1.401284e-14 -3.828033e+01 1.506967e+01
         vertex 1.641354e-14 -4.013157e+01 1.422500e+01
      endloop
   endfacet
   facet normal 1.000000e+00 4.161878e-22 2.842170e-15
      outer loop
         vertex 1.814409e-14 -2.763997e+01 1.361612e+01
         vertex 1.563194e-14 -2.800609e+01 1.450000e+01
         vertex 2.174261e-14 -3.189006e+01 1.235000e+01
      endloop
   endfacet
   facet normal 1.000000e+00 1.083830e-23 2.842171e-15
      outer loop
         vertex 4.689582e-15 -8.000000e+00 1.835000e+01
         vertex 1.207923e-14 -2.675609e+01 1.575000e+01
         vertex 1.311979e-14 -2.587220e+01 1.538388e+01
      endloop
   endfacet
   facet normal 1.000000e+00 -1.183906e-21 2.842172e-15
      outer loop
         vertex 1.927438e-14 -3.912500e+01 1.321843e+01
         vertex 1.463718e-14 -3.775000e+01 1.485000e+01
         vertex 1.401284e-14 -3.828033e+01 1.506967e+01
      endloop
   endfacet
   facet normal 1.000000e+00 -4.047831e-22 2.842170e-15
      outer loop
         vertex 2.273737e-14 -7.000000e+00 1.200000e+01
         vertex 1.814409e-14 -1.111612e+01 1.361612e+01
         vertex 2.557954e-14 -8.000000e+00 1.100000e+01
      endloop
   endfacet
   facet normal 1.000000e+00 -4.005022e-22 2.842170e-15
      outer loop
         vertex 2.273737e-14 -7.000000e+00 1.200000e+01
         vertex 1.563194e-14 -1.075000e+01 1.450000e+01
         vertex 1.814409e-14 -1.111612e+01 1.361612e+01
      endloop
   endfacet
   facet normal -1.000000e+00 0.000000e+00 0.000000e+00
      outer loop
         vertex -5.000000e+00 -7.500000e+00 1.113398e+01
         vertex -5.000000e+00 -8.000000e+00 1.100000e+01
         vertex -5.000000e+00 -7.000000e+00 1.200000e+01
      endloop
   endfacet
   facet normal -1.000000e+00 0.000000e+00 0.000000e+00
      outer loop
         vertex -5.000000e+00 -3.125609e+01 1.100000e+01
         vertex -5.000000e+00 -3.150609e+01 1.106699e+01
         vertex -5.000000e+00 -3.175609e+01 1.150000e+01
      endloop
   endfacet
   facet normal -1.000000e+00 0.000000e+00 0.000000e+00
      outer loop
         vertex -5.000000e+00 -3.168910e+01 1.125000e+01
         vertex -5.000000e+00 -3.175609e+01 1.150000e+01
         vertex -5.000000e+00 -3.150609e+01 1.106699e+01
      endloop
   endfacet
   facet normal -1.000000e+00 0.000000e+00 0.000000e+00
      outer loop
         vertex -5.000000e+00 -3.189006e+01 1.235000e+01
         vertex -5.000000e+00 -3.225609e+01 1.271603e+01
         vertex -5.000000e+00 -2.800609e+01 1.450000e+01
      endloop
   endfacet
   facet normal -1.000000e+00 0.000000e+00 0.000000e+00
      outer loop
         vertex -5.000000e+00 -3.275609e+01 1.285000e+01
         vertex -5.000000e+00 -3.775000e+01 1.285000e+01
         vertex -5.000000e+00 -3.721967e+01 1.506967e+01
      endloop
   endfacet
   facet normal -1.000000e+00 0.000000e+00 0.000000e+00
      outer loop
         vertex -5.000000e+00 -3.912500e+01 1.321843e+01
         vertex -5.000000e+00 -4.013157e+01 1.422500e+01
         vertex -5.000000e+00 -3.828033e+01 1.506967e+01
      endloop
   endfacet
   facet normal -1.000000e+00 0.000000e+00 -0.000000e+00
      outer loop
         vertex -5.000000e+00 -4.050000e+01 1.560000e+01
         vertex -5.000000e+00 -4.013157e+01 1.697500e+01
         vertex -5.000000e+00 -3.850000e+01 1.560000e+01
      endloop
   endfacet
   facet normal -1.000000e+00 0.000000e+00 -0.000000e+00
      outer loop
         vertex -5.000000e+00 -3.912500e+01 1.798157e+01
         vertex -5.000000e+00 -3.775000e+01 1.835000e+01
         vertex -5.000000e+00 -3.775000e+01 1.635000e+01
      endloop
   endfacet
   facet normal -1.000000e+00 -0.000000e+00 -0.000000e+00
      outer loop
         vertex -5.000000e+00 -8.000000e+00 1.835000e+01
         vertex -5.000000e+00 -7.500000e+00 1.821603e+01
         vertex -5.000000e+00 -7.000000e+00 1.735000e+01
      endloop
   endfacet
   facet normal -1.000000e+00 0.000000e+00 0.000000e+00
      outer loop
         vertex -5.000000e+00 -7.133975e+00 1.785000e+01
         vertex -5.000000e+00 -7.000000e+00 1.735000e+01
         vertex -5.000000e+00 -7.500000e+00 1.821603e+01
      endloop
   endfacet
   facet normal -1.000000e+00 0.000000e+00 0.000000e+00
      outer loop
         vertex -5.000000e+00 -7.133975e+00 1.150000e+01
         vertex -5.000000e+00 -7.500000e+00 1.113398e+01
         vertex -5.000000e+00 -7.000000e+00 1.200000e+01
      endloop
   endfacet
   facet normal -1.000000e+00 -0.000000e+00 0.000000e+00
      outer loop
         vertex -5.000000e+00 -2.763997e+01 1.361612e+01
         vertex -5.000000e+00 -2.675609e+01 1.325000e+01
         vertex -5.000000e+00 -3.125609e+01 1.100000e+01
      endloop
   endfacet
   facet normal -1.000000e+00 0.000000e+00 -0.000000e+00
      outer loop
         vertex -5.000000e+00 -2.587220e+01 1.361612e+01
         vertex -5.000000e+00 -2.550609e+01 1.450000e+01
         vertex -5.000000e+00 -1.325000e+01 1.450000e+01
      endloop
   endfacet
   facet normal -1.000000e+00 0.000000e+00 0.000000e+00
      outer loop
         vertex -5.000000e+00 -2.587220e+01 1.538388e+01
         vertex -5.000000e+00 -2.675609e+01 1.575000e+01
         vertex -5.000000e+00 -8.000000e+00 1.835000e+01
      endloop
   endfacet
   facet normal -1.000000e+00 0.000000e+00 0.000000e+00
      outer loop
         vertex -5.000000e+00 -1.288388e+01 1.538388e+01
         vertex -5.000000e+00 -1.325000e+01 1.450000e+01
         vertex -5.000000e+00 -2.550609e+01 1.450000e+01
      endloop
   endfacet
   facet normal -1.000000e+00 0.000000e+00 0.000000e+00
      outer loop
         vertex -5.000000e+00 -1.288388e+01 1.361612e+01
         vertex -5.000000e+00 -1.200000e+01 1.325000e+01
         vertex -5.000000e+00 -2.675609e+01 1.325000e+01
      endloop
   endfacet
   facet normal -1.000000e+00 0.000000e+00 -0.000000e+00
      outer loop
         vertex -5.000000e+00 -1.111612e+01 1.361612e+01
         vertex -5.000000e+00 -1.075000e+01 1.450000e+01
         vertex -5.000000e+00 -7.000000e+00 1.200000e+01
      endloop
   endfacet
   facet normal -1.000000e+00 0.000000e+00 0.000000e+00
      outer loop
         vertex -5.000000e+00 -1.111612e+01 1.538388e+01
         vertex -5.000000e+00 -1.200000e+01 1.575000e+01
         vertex -5.000000e+00 -8.000000e+00 1.835000e+01
      endloop
   endfacet
   facet normal -1.000000e+00 0.000000e+00 0.000000e+00
      outer loop
         vertex -5.000000e+00 -3.828033e+01 1.613033e+01
         vertex -5.000000e+00 -3.850000e+01 1.560000e+01
         vertex -5.000000e+00 -4.013157e+01 1.697500e+01
      endloop
   endfacet
   facet normal -1.000000e+00 -0.000000e+00 0.000000e+00
      outer loop
         vertex -5.000000e+00 -3.828033e+01 1.506967e+01
         vertex -5.000000e+00 -3.775000e+01 1.485000e+01
         vertex -5.000000e+00 -3.912500e+01 1.321843e+01
      endloop
   endfacet
   facet normal -1.000000e+00 0.000000e+00 -0.000000e+00
      outer loop
         vertex -5.000000e+00 -3.721967e+01 1.506967e+01
         vertex -5.000000e+00 -3.700000e+01 1.560000e+01
         vertex -5.000000e+00 -3.275609e+01 1.285000e+01
      endloop
   endfacet
   facet normal -1.000000e+00 0.000000e+00 0.000000e+00
      outer loop
         vertex -5.000000e+00 -3.721967e+01 1.613033e+01
         vertex -5.000000e+00 -3.775000e+01 1.635000e+01
         vertex -5.000000e+00 -3.775000e+01 1.835000e+01
      endloop
   endfacet
   facet normal -1.000000e+00 0.000000e+00 0.000000e+00
      outer loop
         vertex -5.000000e+00 -7.000000e+00 1.200000e+01
         vertex -5.000000e+00 -8.000000e+00 1.100000e+01
         vertex -5.000000e+00 -1.111612e+01 1.361612e+01
      endloop
   endfacet
   facet normal -1.000000e+00 0.000000e+00 -0.000000e+00
      outer loop
         vertex -5.000000e+00 -3.189006e+01 1.235000e+01
         vertex -5.000000e+00 -2.800609e+01 1.450000e+01
         vertex -5.000000e+00 -2.763997e+01 1.361612e+01
      endloop
   endfacet
   facet normal -1.000000e+00 0.000000e+00 0.000000e+00
      outer loop
         vertex -5.000000e+00 -3.828033e+01 1.506967e+01
         vertex -5.000000e+00 -4.013157e+01 1.422500e+01
         vertex -5.000000e+00 -3.850000e+01 1.560000e+01
      endloop
   endfacet
   facet normal -1.000000e+00 -0.000000e+00 0.000000e+00
      outer loop
         vertex -5.000000e+00 -8.000000e+00 1.835000e+01
         vertex -5.000000e+00 -7.000000e+00 1.735000e+01
         vertex -5.000000e+00 -1.111612e+01 1.538388e+01
      endloop
   endfacet
   facet normal -1.000000e+00 0.000000e+00 -0.000000e+00
      outer loop
         vertex -5.000000e+00 -3.125609e+01 1.100000e+01
         vertex -5.000000e+00 -2.675609e+01 1.325000e+01
         vertex -5.000000e+00 -8.000000e+00 1.100000e+01
      endloop
   endfacet
   facet normal -1.000000e+00 0.000000e+00 0.000000e+00
      outer loop
         vertex -5.000000e+00 -8.000000e+00 1.835000e+01
         vertex -5.000000e+00 -2.675609e+01 1.575000e+01
         vertex -5.000000e+00 -3.775000e+01 1.835000e+01
      endloop
   endfacet
   facet normal -1.000000e+00 -0.000000e+00 -0.000000e+00
      outer loop
         vertex -5.000000e+00 -2.675609e+01 1.325000e+01
         vertex -5.000000e+00 -1.200000e+01 1.325000e+01
         vertex -5.000000e+00 -8.000000e+00 1.100000e+01
      endloop
   endfacet
   facet normal -1.000000e+00 -0.000000e+00 0.000000e+00
      outer loop
         vertex -5.000000e+00 -8.000000e+00 1.835000e+01
         vertex -5.000000e+00 -1.200000e+01 1.575000e+01
         vertex -5.000000e+00 -1.288388e+01 1.538388e+01
      endloop
   endfacet
   facet normal -1.000000e+00 0.000000e+00 0.000000e+00
      outer loop
         vertex -5.000000e+00 -3.275609e+01 1.285000e+01
         vertex -5.000000e+00 -3.700000e+01 1.560000e+01
         vertex -5.000000e+00 -3.721967e+01 1.613033e+01
      endloop
   endfacet
   facet normal -1.000000e+00 0.000000e+00 0.000000e+00
      outer loop
         vertex -5.000000e+00 -3.189006e+01 1.235000e+01
         vertex -5.000000e+00 -2.763997e+01 1.361612e+01
         vertex -5.000000e+00 -3.175609e+01 1.185000e+01
      endloop
   endfacet
   facet normal -1.000000e+00 -0.000000e+00 0.000000e+00
      outer loop
         vertex -5.000000e+00 -3.775000e+01 1.835000e+01
         vertex -5.000000e+00 -2.675609e+01 1.575000e+01
         vertex -5.000000e+00 -2.763997e+01 1.538388e+01
      endloop
   endfacet
   facet normal -1.000000e+00 0.000000e+00 0.000000e+00
      outer loop
         vertex -5.000000e+00 -3.275609e+01 1.285000e+01
         vertex -5.000000e+00 -3.721967e+01 1.613033e+01
         vertex -5.000000e+00 -2.763997e+01 1.538388e+01
      endloop
   endfacet
   facet normal -1.000000e+00 0.000000e+00 0.000000e+00
      outer loop
         vertex -5.000000e+00 -3.775000e+01 1.835000e+01
         vertex -5.000000e+00 -2.763997e+01 1.538388e+01
         vertex -5.000000e+00 -3.721967e+01 1.613033e+01
      endloop
   endfacet
   facet normal -1.000000e+00 0.000000e+00 0.000000e+00
      outer loop
         vertex -5.000000e+00 -3.175609e+01 1.150000e+01
         vertex -5.000000e+00 -3.175609e+01 1.185000e+01
         vertex -5.000000e+00 -3.125609e+01 1.100000e+01
      endloop
   endfacet
   facet normal -1.000000e+00 0.000000e+00 0.000000e+00
      outer loop
         vertex -5.000000e+00 -3.775000e+01 1.285000e+01
         vertex -5.000000e+00 -3.912500e+01 1.321843e+01
         vertex -5.000000e+00 -3.775000e+01 1.485000e+01
      endloop
   endfacet
   facet normal -1.000000e+00 0.000000e+00 -0.000000e+00
      outer loop
         vertex -5.000000e+00 -4.013157e+01 1.697500e+01
         vertex -5.000000e+00 -3.912500e+01 1.798157e+01
         vertex -5.000000e+00 -3.828033e+01 1.613033e+01
      endloop
   endfacet
   facet normal -1.000000e+00 -0.000000e+00 0.000000e+00
      outer loop
         vertex -5.000000e+00 -2.763997e+01 1.538388e+01
         vertex -5.000000e+00 -2.800609e+01 1.450000e+01
         vertex -5.000000e+00 -3.225609e+01 1.271603e+01
      endloop
   endfacet
   facet normal -1.000000e+00 0.000000e+00 0.000000e+00
      outer loop
         vertex -5.000000e+00 -2.550609e+01 1.450000e+01
         vertex -5.000000e+00 -2.587220e+01 1.538388e+01
         vertex -5.000000e+00 -1.288388e+01 1.538388e+01
      endloop
   endfacet
   facet normal -1.000000e+00 0.000000e+00 -0.000000e+00
      outer loop
         vertex -5.000000e+00 -1.200000e+01 1.325000e+01
         vertex -5.000000e+00 -1.111612e+01 1.361612e+01
         vertex -5.000000e+00 -8.000000e+00 1.100000e+01
      endloop
   endfacet
   facet normal -1.000000e+00 0.000000e+00 0.000000e+00
      outer loop
         vertex -5.000000e+00 -3.775000e+01 1.485000e+01
         vertex -5.000000e+00 -3.721967e+01 1.506967e+01
         vertex -5.000000e+00 -3.775000e+01 1.285000e+01
      endloop
   endfacet
   facet normal -1.000000e+00 -0.000000e+00 0.000000e+00
      outer loop
         vertex -5.000000e+00 -4.050000e+01 1.560000e+01
         vertex -5.000000e+00 -3.850000e+01 1.560000e+01
         vertex -5.000000e+00 -4.013157e+01 1.422500e+01
      endloop
   endfacet
   facet normal -1.000000e+00 0.000000e+00 -0.000000e+00
      outer loop
         vertex -5.000000e+00 -2.587220e+01 1.361612e+01
         vertex -5.000000e+00 -1.325000e+01 1.450000e+01
         vertex -5.000000e+00 -1.288388e+01 1.361612e+01
      endloop
   endfacet
   facet normal -1.000000e+00 0.000000e+00 0.000000e+00
      outer loop
         vertex -5.000000e+00 -7.000000e+00 1.200000e+01
         vertex -5.000000e+00 -1.075000e+01 1.450000e+01
         vertex -5.000000e+00 -7.000000e+00 1.735000e+01
      endloop
   endfacet
   facet normal -1.000000e+00 0.000000e+00 0.000000e+00
      outer loop
         vertex -5.000000e+00 -3.175609e+01 1.185000e+01
         vertex -5.000000e+00 -2.763997e+01 1.361612e+01
         vertex -5.000000e+00 -3.125609e+01 1.100000e+01
      endloop
   endfacet
   facet normal -1.000000e+00 0.000000e+00 0.000000e+00
      outer loop
         vertex -5.000000e+00 -2.763997e+01 1.538388e+01
         vertex -5.000000e+00 -3.225609e+01 1.271603e+01
         vertex -5.000000e+00 -3.275609e+01 1.285000e+01
      endloop
   endfacet
   facet normal -1.000000e+00 0.000000e+00 -0.000000e+00
      outer loop
         vertex -5.000000e+00 -2.675609e+01 1.325000e+01
         vertex -5.000000e+00 -2.587220e+01 1.361612e+01
         vertex -5.000000e+00 -1.288388e+01 1.361612e+01
      endloop
   endfacet
   facet normal -1.000000e+00 0.000000e+00 0.000000e+00
      outer loop
         vertex -5.000000e+00 -3.775000e+01 1.635000e+01
         vertex -5.000000e+00 -3.828033e+01 1.613033e+01
         vertex -5.000000e+00 -3.912500e+01 1.798157e+01
      endloop
   endfacet
   facet normal -1.000000e+00 0.000000e+00 0.000000e+00
      outer loop
         vertex -5.000000e+00 -1.111612e+01 1.538388e+01
         vertex -5.000000e+00 -7.000000e+00 1.735000e+01
         vertex -5.000000e+00 -1.075000e+01 1.450000e+01
      endloop
   endfacet
   facet normal -1.000000e+00 0.000000e+00 0.000000e+00
      outer loop
         vertex -5.000000e+00 -2.587220e+01 1.538388e+01
         vertex -5.000000e+00 -8.000000e+00 1.835000e+01
         vertex -5.000000e+00 -1.288388e+01 1.538388e+01
      endloop
   endfacet
   facet normal 0.000000e+00 9.659258e-01 -2.588190e-01
      outer loop
         vertex -5.000000e+00 -7.000000e+00 1.200000e+01
         vertex 2.273737e-14 -7.000000e+00 1.200000e+01
         vertex 2.415845e-14 -7.133975e+00 1.150000e+01
      endloop
   endfacet
   facet normal 0.000000e+00 2.588198e-01 -9.659256e-01
      outer loop
         vertex 2.519876e-14 -7.500000e+00 1.113398e+01
         vertex 2.557954e-14 -8.000000e+00 1.100000e+01
         vertex -5.000000e+00 -8.000000e+00 1.100000e+01
      endloop
   endfacet
   facet normal 0.000000e+00 7.071063e-01 -7.071072e-01
      outer loop
         vertex -5.000000e+00 -7.500000e+00 1.113398e+01
         vertex -5.000000e+00 -7.133975e+00 1.150000e+01
         vertex 2.415845e-14 -7.133975e+00 1.150000e+01
      endloop
   endfacet
   facet normal 0.000000e+00 9.659258e-01 -2.588190e-01
      outer loop
         vertex -5.000000e+00 -7.000000e+00 1.200000e+01
         vertex 2.415845e-14 -7.133975e+00 1.150000e+01
         vertex -5.000000e+00 -7.133975e+00 1.150000e+01
      endloop
   endfacet
   facet normal 0.000000e+00 7.071063e-01 -7.071072e-01
      outer loop
         vertex 2.415845e-14 -7.133975e+00 1.150000e+01
         vertex 2.519876e-14 -7.500000e+00 1.113398e+01
         vertex -5.000000e+00 -7.500000e+00 1.113398e+01
      endloop
   endfacet
   facet normal 0.000000e+00 2.588198e-01 -9.659256e-01
      outer loop
         vertex 2.519876e-14 -7.500000e+00 1.113398e+01
         vertex -5.000000e+00 -8.000000e+00 1.100000e+01
         vertex -5.000000e+00 -7.500000e+00 1.113398e+01
      endloop
   endfacet
   facet normal 0.000000e+00 1.000000e+00 0.000000e+00
      outer loop
         vertex -5.000000e+00 -7.000000e+00 1.735000e+01
         vertex 7.531753e-15 -7.000000e+00 1.735000e+01
         vertex -5.000000e+00 -7.000000e+00 1.200000e+01
      endloop
   endfacet
   facet normal 0.000000e+00 1.000000e+00 0.000000e+00
      outer loop
         vertex 2.273737e-14 -7.000000e+00 1.200000e+01
         vertex -5.000000e+00 -7.000000e+00 1.200000e+01
         vertex 7.531753e-15 -7.000000e+00 1.735000e+01
      endloop
   endfacet
   facet normal 0.000000e+00 2.588181e-01 9.659261e-01
      outer loop
         vertex -5.000000e+00 -8.000000e+00 1.835000e+01
         vertex 4.689582e-15 -8.000000e+00 1.835000e+01
         vertex 5.070361e-15 -7.500000e+00 1.821603e+01
      endloop
   endfacet
   facet normal 0.000000e+00 9.659258e-01 2.588190e-01
      outer loop
         vertex 6.110668e-15 -7.133975e+00 1.785000e+01
         vertex 7.531753e-15 -7.000000e+00 1.735000e+01
         vertex -5.000000e+00 -7.000000e+00 1.735000e+01
      endloop
   endfacet
   facet normal -0.000000e+00 7.071072e-01 7.071063e-01
      outer loop
         vertex -5.000000e+00 -7.133975e+00 1.785000e+01
         vertex -5.000000e+00 -7.500000e+00 1.821603e+01
         vertex 5.070361e-15 -7.500000e+00 1.821603e+01
      endloop
   endfacet
   facet normal 0.000000e+00 2.588181e-01 9.659261e-01
      outer loop
         vertex -5.000000e+00 -8.000000e+00 1.835000e+01
         vertex 5.070361e-15 -7.500000e+00 1.821603e+01
         vertex -5.000000e+00 -7.500000e+00 1.821603e+01
      endloop
   endfacet
   facet normal 0.000000e+00 7.071072e-01 7.071063e-01
      outer loop
         vertex 5.070361e-15 -7.500000e+00 1.821603e+01
         vertex 6.110668e-15 -7.133975e+00 1.785000e+01
         vertex -5.000000e+00 -7.133975e+00 1.785000e+01
      endloop
   endfacet
   facet normal 0.000000e+00 9.659258e-01 2.588190e-01
      outer loop
         vertex 6.110668e-15 -7.133975e+00 1.785000e+01
         vertex -5.000000e+00 -7.000000e+00 1.735000e+01
         vertex -5.000000e+00 -7.133975e+00 1.785000e+01
      endloop
   endfacet
   facet normal 0.000000e+00 -0.000000e+00 1.000000e+00
      outer loop
         vertex -5.000000e+00 -3.775000e+01 1.835000e+01
         vertex 4.689582e-15 -3.775000e+01 1.835000e+01
         vertex 4.689582e-15 -8.000000e+00 1.835000e+01
      endloop
   endfacet
   facet normal 0.000000e+00 0.000000e+00 1.000000e+00
      outer loop
         vertex -5.000000e+00 -8.000000e+00 1.835000e+01
         vertex -5.000000e+00 -3.775000e+01 1.835000e+01
         vertex 4.689582e-15 -8.000000e+00 1.835000e+01
      endloop
   endfacet
   facet normal -0.000000e+00 -2.588190e-01 -9.659258e-01
      outer loop
         vertex -5.000000e+00 -3.775000e+01 1.285000e+01
         vertex 2.032152e-14 -3.775000e+01 1.285000e+01
         vertex 1.927438e-14 -3.912500e+01 1.321843e+01
      endloop
   endfacet
   facet normal -0.000000e+00 -9.659257e-01 -2.588197e-01
      outer loop
         vertex 1.641354e-14 -4.013157e+01 1.422500e+01
         vertex 1.250555e-14 -4.050000e+01 1.560000e+01
         vertex -5.000000e+00 -4.050000e+01 1.560000e+01
      endloop
   endfacet
   facet normal 0.000000e+00 -7.071068e-01 7.071068e-01
      outer loop
         vertex 8.597567e-15 -4.013157e+01 1.697500e+01
         vertex 5.736723e-15 -3.912500e+01 1.798157e+01
         vertex -5.000000e+00 -3.912500e+01 1.798157e+01
      endloop
   endfacet
   facet normal 0.000000e+00 -2.588197e-01 9.659257e-01
      outer loop
         vertex 4.689582e-15 -3.775000e+01 1.835000e+01
         vertex -5.000000e+00 -3.775000e+01 1.835000e+01
         vertex 5.736723e-15 -3.912500e+01 1.798157e+01
      endloop
   endfacet
   facet normal 0.000000e+00 -9.659257e-01 2.588197e-01
      outer loop
         vertex -5.000000e+00 -4.013157e+01 1.697500e+01
         vertex -5.000000e+00 -4.050000e+01 1.560000e+01
         vertex 1.250555e-14 -4.050000e+01 1.560000e+01
      endloop
   endfacet
   facet normal 0.000000e+00 -7.071071e-01 -7.071064e-01
      outer loop
         vertex -5.000000e+00 -4.013157e+01 1.422500e+01
         vertex -5.000000e+00 -3.912500e+01 1.321843e+01
         vertex 1.927438e-14 -3.912500e+01 1.321843e+01
      endloop
   endfacet
   facet normal -0.000000e+00 -2.588190e-01 -9.659258e-01
      outer loop
         vertex -5.000000e+00 -3.775000e+01 1.285000e+01
         vertex 1.927438e-14 -3.912500e+01 1.321843e+01
         vertex -5.000000e+00 -3.912500e+01 1.321843e+01
      endloop
   endfacet
   facet normal 0.000000e+00 -2.588197e-01 9.659257e-01
      outer loop
         vertex -5.000000e+00 -3.912500e+01 1.798157e+01
         vertex 5.736723e-15 -3.912500e+01 1.798157e+01
         vertex -5.000000e+00 -3.775000e+01 1.835000e+01
      endloop
   endfacet
   facet normal -0.000000e+00 -7.071071e-01 -7.071064e-01
      outer loop
         vertex 1.927438e-14 -3.912500e+01 1.321843e+01
         vertex 1.641354e-14 -4.013157e+01 1.422500e+01
         vertex -5.000000e+00 -4.013157e+01 1.422500e+01
      endloop
   endfacet
   facet normal 0.000000e+00 -7.071068e-01 7.071068e-01
      outer loop
         vertex -5.000000e+00 -3.912500e+01 1.798157e+01
         vertex -5.000000e+00 -4.013157e+01 1.697500e+01
         vertex 8.597567e-15 -4.013157e+01 1.697500e+01
      endloop
   endfacet
   facet normal 0.000000e+00 -9.659257e-01 -2.588197e-01
      outer loop
         vertex 1.641354e-14 -4.013157e+01 1.422500e+01
         vertex -5.000000e+00 -4.050000e+01 1.560000e+01
         vertex -5.000000e+00 -4.013157e+01 1.422500e+01
      endloop
   endfacet
   facet normal 0.000000e+00 -9.659257e-01 2.588197e-01
      outer loop
         vertex 1.250555e-14 -4.050000e+01 1.560000e+01
         vertex 8.597567e-15 -4.013157e+01 1.697500e+01
         vertex -5.000000e+00 -4.013157e+01 1.697500e+01
      endloop
   endfacet
   facet normal -0.000000e+00 -0.000000e+00 -1.000000e+00
      outer loop
         vertex -5.000000e+00 -3.275609e+01 1.285000e+01
         vertex 2.032152e-14 -3.275609e+01 1.285000e+01
         vertex 2.032152e-14 -3.775000e+01 1.285000e+01
      endloop
   endfacet
   facet normal 0.000000e+00 0.000000e+00 -1.000000e+00
      outer loop
         vertex -5.000000e+00 -3.775000e+01 1.285000e+01
         vertex -5.000000e+00 -3.275609e+01 1.285000e+01
         vertex 2.032152e-14 -3.775000e+01 1.285000e+01
      endloop
   endfacet
   facet normal -0.000000e+00 -9.659261e-01 -2.588181e-01
      outer loop
         vertex -5.000000e+00 -3.175609e+01 1.185000e+01
         vertex 2.316369e-14 -3.175609e+01 1.185000e+01
         vertex 2.174261e-14 -3.189006e+01 1.235000e+01
      endloop
   endfacet
   facet normal -0.000000e+00 -2.588198e-01 -9.659256e-01
      outer loop
         vertex 2.070230e-14 -3.225609e+01 1.271603e+01
         vertex 2.032152e-14 -3.275609e+01 1.285000e+01
         vertex -5.000000e+00 -3.275609e+01 1.285000e+01
      endloop
   endfacet
   facet normal 0.000000e+00 -7.071059e-01 -7.071077e-01
      outer loop
         vertex -5.000000e+00 -3.225609e+01 1.271603e+01
         vertex -5.000000e+00 -3.189006e+01 1.235000e+01
         vertex 2.174261e-14 -3.189006e+01 1.235000e+01
      endloop
   endfacet
   facet normal -0.000000e+00 -9.659261e-01 -2.588181e-01
      outer loop
         vertex -5.000000e+00 -3.175609e+01 1.185000e+01
         vertex 2.174261e-14 -3.189006e+01 1.235000e+01
         vertex -5.000000e+00 -3.189006e+01 1.235000e+01
      endloop
   endfacet
   facet normal -0.000000e+00 -7.071059e-01 -7.071077e-01
      outer loop
         vertex 2.174261e-14 -3.189006e+01 1.235000e+01
         vertex 2.070230e-14 -3.225609e+01 1.271603e+01
         vertex -5.000000e+00 -3.225609e+01 1.271603e+01
      endloop
   endfacet
   facet normal 0.000000e+00 -2.588198e-01 -9.659256e-01
      outer loop
         vertex 2.070230e-14 -3.225609e+01 1.271603e+01
         vertex -5.000000e+00 -3.275609e+01 1.285000e+01
         vertex -5.000000e+00 -3.225609e+01 1.271603e+01
      endloop
   endfacet
   facet normal 0.000000e+00 -1.000000e+00 0.000000e+00
      outer loop
         vertex -5.000000e+00 -3.175609e+01 1.150000e+01
         vertex 2.415845e-14 -3.175609e+01 1.150000e+01
         vertex -5.000000e+00 -3.175609e+01 1.185000e+01
      endloop
   endfacet
   facet normal 0.000000e+00 -1.000000e+00 0.000000e+00
      outer loop
         vertex 2.316369e-14 -3.175609e+01 1.185000e+01
         vertex -5.000000e+00 -3.175609e+01 1.185000e+01
         vertex 2.415845e-14 -3.175609e+01 1.150000e+01
      endloop
   endfacet
   facet normal -0.000000e+00 -2.588181e-01 -9.659261e-01
      outer loop
         vertex -5.000000e+00 -3.125609e+01 1.100000e+01
         vertex 2.557954e-14 -3.125609e+01 1.100000e+01
         vertex 2.538915e-14 -3.150609e+01 1.106699e+01
      endloop
   endfacet
   facet normal -0.000000e+00 -9.659252e-01 -2.588215e-01
      outer loop
         vertex 2.486900e-14 -3.168910e+01 1.125000e+01
         vertex 2.415845e-14 -3.175609e+01 1.150000e+01
         vertex -5.000000e+00 -3.175609e+01 1.150000e+01
      endloop
   endfacet
   facet normal 0.000000e+00 -7.071086e-01 -7.071049e-01
      outer loop
         vertex -5.000000e+00 -3.168910e+01 1.125000e+01
         vertex -5.000000e+00 -3.150609e+01 1.106699e+01
         vertex 2.538915e-14 -3.150609e+01 1.106699e+01
      endloop
   endfacet
   facet normal -0.000000e+00 -2.588181e-01 -9.659261e-01
      outer loop
         vertex -5.000000e+00 -3.125609e+01 1.100000e+01
         vertex 2.538915e-14 -3.150609e+01 1.106699e+01
         vertex -5.000000e+00 -3.150609e+01 1.106699e+01
      endloop
   endfacet
   facet normal -0.000000e+00 -7.071086e-01 -7.071049e-01
      outer loop
         vertex 2.538915e-14 -3.150609e+01 1.106699e+01
         vertex 2.486900e-14 -3.168910e+01 1.125000e+01
         vertex -5.000000e+00 -3.168910e+01 1.125000e+01
      endloop
   endfacet
   facet normal 0.000000e+00 -9.659252e-01 -2.588215e-01
      outer loop
         vertex 2.486900e-14 -3.168910e+01 1.125000e+01
         vertex -5.000000e+00 -3.175609e+01 1.150000e+01
         vertex -5.000000e+00 -3.168910e+01 1.125000e+01
      endloop
   endfacet
   facet normal -0.000000e+00 -0.000000e+00 -1.000000e+00
      outer loop
         vertex -5.000000e+00 -8.000000e+00 1.100000e+01
         vertex 2.557954e-14 -8.000000e+00 1.100000e+01
         vertex 2.557954e-14 -3.125609e+01 1.100000e+01
      endloop
   endfacet
   facet normal 0.000000e+00 0.000000e+00 -1.000000e+00
      outer loop
         vertex -5.000000e+00 -3.125609e+01 1.100000e+01
         vertex -5.000000e+00 -8.000000e+00 1.100000e+01
         vertex 2.557954e-14 -3.125609e+01 1.100000e+01
      endloop
   endfacet
   facet normal -0.000000e+00 9.238792e-01 3.826843e-01
      outer loop
         vertex -5.000000e+00 -2.763997e+01 1.361612e+01
         vertex -5.000000e+00 -2.800609e+01 1.450000e+01
         vertex 1.563194e-14 -2.800609e+01 1.450000e+01
      endloop
   endfacet
   facet normal 0.000000e+00 -3.826831e-01 9.238797e-01
      outer loop
         vertex 1.814409e-14 -2.587220e+01 1.361612e+01
         vertex -5.000000e+00 -2.587220e+01 1.361612e+01
         vertex -5.000000e+00 -2.675609e+01 1.325000e+01
      endloop
   endfacet
   facet normal 0.000000e+00 -9.238799e-01 -3.826826e-01
      outer loop
         vertex 1.311979e-14 -2.587220e+01 1.538388e+01
         vertex -5.000000e+00 -2.587220e+01 1.538388e+01
         vertex -5.000000e+00 -2.550609e+01 1.450000e+01
      endloop
   endfacet
   facet normal 0.000000e+00 3.826838e-01 -9.238794e-01
      outer loop
         vertex 1.311979e-14 -2.763997e+01 1.538388e+01
         vertex -5.000000e+00 -2.763997e+01 1.538388e+01
         vertex -5.000000e+00 -2.675609e+01 1.575000e+01
      endloop
   endfacet
   facet normal 0.000000e+00 9.238792e-01 -3.826843e-01
      outer loop
         vertex -5.000000e+00 -2.763997e+01 1.538388e+01
         vertex 1.563194e-14 -2.800609e+01 1.450000e+01
         vertex -5.000000e+00 -2.800609e+01 1.450000e+01
      endloop
   endfacet
   facet normal -0.000000e+00 -3.826831e-01 -9.238797e-01
      outer loop
         vertex -5.000000e+00 -2.587220e+01 1.538388e+01
         vertex 1.311979e-14 -2.587220e+01 1.538388e+01
         vertex 1.207923e-14 -2.675609e+01 1.575000e+01
      endloop
   endfacet
   facet normal 0.000000e+00 -9.238799e-01 3.826826e-01
      outer loop
         vertex -5.000000e+00 -2.587220e+01 1.361612e+01
         vertex 1.814409e-14 -2.587220e+01 1.361612e+01
         vertex 1.563194e-14 -2.550609e+01 1.450000e+01
      endloop
   endfacet
   facet normal 0.000000e+00 3.826838e-01 9.238794e-01
      outer loop
         vertex -5.000000e+00 -2.763997e+01 1.361612e+01
         vertex 1.814409e-14 -2.763997e+01 1.361612e+01
         vertex 1.918465e-14 -2.675609e+01 1.325000e+01
      endloop
   endfacet
   facet normal -0.000000e+00 9.238792e-01 3.826843e-01
      outer loop
         vertex 1.814409e-14 -2.763997e+01 1.361612e+01
         vertex -5.000000e+00 -2.763997e+01 1.361612e+01
         vertex 1.563194e-14 -2.800609e+01 1.450000e+01
      endloop
   endfacet
   facet normal 0.000000e+00 3.826838e-01 -9.238794e-01
      outer loop
         vertex 1.207923e-14 -2.675609e+01 1.575000e+01
         vertex 1.311979e-14 -2.763997e+01 1.538388e+01
         vertex -5.000000e+00 -2.675609e+01 1.575000e+01
      endloop
   endfacet
   facet normal 0.000000e+00 -3.826831e-01 -9.238797e-01
      outer loop
         vertex -5.000000e+00 -2.675609e+01 1.575000e+01
         vertex -5.000000e+00 -2.587220e+01 1.538388e+01
         vertex 1.207923e-14 -2.675609e+01 1.575000e+01
      endloop
   endfacet
   facet normal -0.000000e+00 3.826838e-01 9.238794e-01
      outer loop
         vertex 1.918465e-14 -2.675609e+01 1.325000e+01
         vertex -5.000000e+00 -2.675609e+01 1.325000e+01
         vertex -5.000000e+00 -2.763997e+01 1.361612e+01
      endloop
   endfacet
   facet normal 0.000000e+00 9.238792e-01 -3.826843e-01
      outer loop
         vertex -5.000000e+00 -2.763997e+01 1.538388e+01
         vertex 1.311979e-14 -2.763997e+01 1.538388e+01
         vertex 1.563194e-14 -2.800609e+01 1.450000e+01
      endloop
   endfacet
   facet normal 0.000000e+00 -3.826831e-01 9.238797e-01
      outer loop
         vertex -5.000000e+00 -2.675609e+01 1.325000e+01
         vertex 1.918465e-14 -2.675609e+01 1.325000e+01
         vertex 1.814409e-14 -2.587220e+01 1.361612e+01
      endloop
   endfacet
   facet normal 0.000000e+00 -9.238799e-01 3.826826e-01
      outer loop
         vertex -5.000000e+00 -2.550609e+01 1.450000e+01
         vertex -5.000000e+00 -2.587220e+01 1.361612e+01
         vertex 1.563194e-14 -2.550609e+01 1.450000e+01
      endloop
   endfacet
   facet normal -0.000000e+00 -9.238799e-01 -3.826826e-01
      outer loop
         vertex -5.000000e+00 -2.550609e+01 1.450000e+01
         vertex 1.563194e-14 -2.550609e+01 1.450000e+01
         vertex 1.311979e-14 -2.587220e+01 1.538388e+01
      endloop
   endfacet
   facet normal -0.000000e+00 9.238795e-01 3.826834e-01
      outer loop
         vertex -5.000000e+00 -1.288388e+01 1.361612e+01
         vertex -5.000000e+00 -1.325000e+01 1.450000e+01
         vertex 1.563194e-14 -1.325000e+01 1.450000e+01
      endloop
   endfacet
   facet normal 0.000000e+00 -3.826834e-01 9.238795e-01
      outer loop
         vertex 1.814409e-14 -1.111612e+01 1.361612e+01
         vertex -5.000000e+00 -1.111612e+01 1.361612e+01
         vertex -5.000000e+00 -1.200000e+01 1.325000e+01
      endloop
   endfacet
   facet normal 0.000000e+00 -9.238795e-01 -3.826834e-01
      outer loop
         vertex 1.311979e-14 -1.111612e+01 1.538388e+01
         vertex -5.000000e+00 -1.111612e+01 1.538388e+01
         vertex -5.000000e+00 -1.075000e+01 1.450000e+01
      endloop
   endfacet
   facet normal 0.000000e+00 3.826834e-01 -9.238795e-01
      outer loop
         vertex 1.311979e-14 -1.288388e+01 1.538388e+01
         vertex -5.000000e+00 -1.288388e+01 1.538388e+01
         vertex -5.000000e+00 -1.200000e+01 1.575000e+01
      endloop
   endfacet
   facet normal 0.000000e+00 9.238795e-01 -3.826834e-01
      outer loop
         vertex -5.000000e+00 -1.288388e+01 1.538388e+01
         vertex 1.563194e-14 -1.325000e+01 1.450000e+01
         vertex -5.000000e+00 -1.325000e+01 1.450000e+01
      endloop
   endfacet
   facet normal -0.000000e+00 -3.826834e-01 -9.238795e-01
      outer loop
         vertex -5.000000e+00 -1.111612e+01 1.538388e+01
         vertex 1.311979e-14 -1.111612e+01 1.538388e+01
         vertex 1.207923e-14 -1.200000e+01 1.575000e+01
      endloop
   endfacet
   facet normal 0.000000e+00 -9.238795e-01 3.826834e-01
      outer loop
         vertex -5.000000e+00 -1.111612e+01 1.361612e+01
         vertex 1.814409e-14 -1.111612e+01 1.361612e+01
         vertex 1.563194e-14 -1.075000e+01 1.450000e+01
      endloop
   endfacet
   facet normal 0.000000e+00 3.826834e-01 9.238795e-01
      outer loop
         vertex -5.000000e+00 -1.288388e+01 1.361612e+01
         vertex 1.814409e-14 -1.288388e+01 1.361612e+01
         vertex 1.918465e-14 -1.200000e+01 1.325000e+01
      endloop
   endfacet
   facet normal -0.000000e+00 9.238795e-01 3.826834e-01
      outer loop
         vertex 1.814409e-14 -1.288388e+01 1.361612e+01
         vertex -5.000000e+00 -1.288388e+01 1.361612e+01
         vertex 1.563194e-14 -1.325000e+01 1.450000e+01
      endloop
   endfacet
   facet normal 0.000000e+00 3.826834e-01 -9.238795e-01
      outer loop
         vertex 1.207923e-14 -1.200000e+01 1.575000e+01
         vertex 1.311979e-14 -1.288388e+01 1.538388e+01
         vertex -5.000000e+00 -1.200000e+01 1.575000e+01
      endloop
   endfacet
   facet normal 0.000000e+00 -3.826834e-01 -9.238795e-01
      outer loop
         vertex -5.000000e+00 -1.200000e+01 1.575000e+01
         vertex -5.000000e+00 -1.111612e+01 1.538388e+01
         vertex 1.207923e-14 -1.200000e+01 1.575000e+01
      endloop
   endfacet
   facet normal -0.000000e+00 3.826834e-01 9.238795e-01
      outer loop
         vertex 1.918465e-14 -1.200000e+01 1.325000e+01
         vertex -5.000000e+00 -1.200000e+01 1.325000e+01
         vertex -5.000000e+00 -1.288388e+01 1.361612e+01
      endloop
   endfacet
   facet normal 0.000000e+00 9.238795e-01 -3.826834e-01
      outer loop
         vertex -5.000000e+00 -1.288388e+01 1.538388e+01
         vertex 1.311979e-14 -1.288388e+01 1.538388e+01
         vertex 1.563194e-14 -1.325000e+01 1.450000e+01
      endloop
   endfacet
   facet normal 0.000000e+00 -3.826834e-01 9.238795e-01
      outer loop
         vertex -5.000000e+00 -1.200000e+01 1.325000e+01
         vertex 1.918465e-14 -1.200000e+01 1.325000e+01
         vertex 1.814409e-14 -1.111612e+01 1.361612e+01
      endloop
   endfacet
   facet normal 0.000000e+00 -9.238795e-01 3.826834e-01
      outer loop
         vertex -5.000000e+00 -1.075000e+01 1.450000e+01
         vertex -5.000000e+00 -1.111612e+01 1.361612e+01
         vertex 1.563194e-14 -1.075000e+01 1.450000e+01
      endloop
   endfacet
   facet normal -0.000000e+00 -9.238795e-01 -3.826834e-01
      outer loop
         vertex -5.000000e+00 -1.075000e+01 1.450000e+01
         vertex 1.563194e-14 -1.075000e+01 1.450000e+01
         vertex 1.311979e-14 -1.111612e+01 1.538388e+01
      endloop
   endfacet
endsolid
