solid 
   facet normal -0.000000e+00 9.238777e-01 3.826879e-01
      outer loop
         vertex -5.000000e+00 -1.182803e+02 1.506967e+01
         vertex -5.000000e+00 -1.185000e+02 1.560000e+01
         vertex 1.250555e-14 -1.185000e+02 1.560000e+01
      endloop
   endfacet
   facet normal 0.000000e+00 -3.826846e-01 9.238791e-01
      outer loop
         vertex 1.401284e-14 -1.172197e+02 1.506967e+01
         vertex -5.000000e+00 -1.172197e+02 1.506967e+01
         vertex -5.000000e+00 -1.177500e+02 1.485000e+01
      endloop
   endfacet
   facet normal 0.000000e+00 -9.238777e-01 -3.826879e-01
      outer loop
         vertex 1.099826e-14 -1.172197e+02 1.613033e+01
         vertex -5.000000e+00 -1.172197e+02 1.613033e+01
         vertex -5.000000e+00 -1.170000e+02 1.560000e+01
      endloop
   endfacet
   facet normal 0.000000e+00 3.826846e-01 -9.238791e-01
      outer loop
         vertex 1.099826e-14 -1.182803e+02 1.613033e+01
         vertex -5.000000e+00 -1.182803e+02 1.613033e+01
         vertex -5.000000e+00 -1.177500e+02 1.635000e+01
      endloop
   endfacet
   facet normal 0.000000e+00 9.238777e-01 -3.826879e-01
      outer loop
         vertex -5.000000e+00 -1.182803e+02 1.613033e+01
         vertex 1.250555e-14 -1.185000e+02 1.560000e+01
         vertex -5.000000e+00 -1.185000e+02 1.560000e+01
      endloop
   endfacet
   facet normal -0.000000e+00 -3.826846e-01 -9.238791e-01
      outer loop
         vertex -5.000000e+00 -1.172197e+02 1.613033e+01
         vertex 1.099826e-14 -1.172197e+02 1.613033e+01
         vertex 1.037392e-14 -1.177500e+02 1.635000e+01
      endloop
   endfacet
   facet normal 0.000000e+00 -9.238777e-01 3.826879e-01
      outer loop
         vertex -5.000000e+00 -1.172197e+02 1.506967e+01
         vertex 1.401284e-14 -1.172197e+02 1.506967e+01
         vertex 1.250555e-14 -1.170000e+02 1.560000e+01
      endloop
   endfacet
   facet normal 0.000000e+00 3.826846e-01 9.238791e-01
      outer loop
         vertex -5.000000e+00 -1.182803e+02 1.506967e+01
         vertex 1.401284e-14 -1.182803e+02 1.506967e+01
         vertex 1.463718e-14 -1.177500e+02 1.485000e+01
      endloop
   endfacet
   facet normal -0.000000e+00 9.238777e-01 3.826879e-01
      outer loop
         vertex 1.401284e-14 -1.182803e+02 1.506967e+01
         vertex -5.000000e+00 -1.182803e+02 1.506967e+01
         vertex 1.250555e-14 -1.185000e+02 1.560000e+01
      endloop
   endfacet
   facet normal 0.000000e+00 3.826846e-01 -9.238791e-01
      outer loop
         vertex 1.037392e-14 -1.177500e+02 1.635000e+01
         vertex 1.099826e-14 -1.182803e+02 1.613033e+01
         vertex -5.000000e+00 -1.177500e+02 1.635000e+01
      endloop
   endfacet
   facet normal 0.000000e+00 -3.826846e-01 -9.238791e-01
      outer loop
         vertex -5.000000e+00 -1.177500e+02 1.635000e+01
         vertex -5.000000e+00 -1.172197e+02 1.613033e+01
         vertex 1.037392e-14 -1.177500e+02 1.635000e+01
      endloop
   endfacet
   facet normal -0.000000e+00 3.826846e-01 9.238791e-01
      outer loop
         vertex 1.463718e-14 -1.177500e+02 1.485000e+01
         vertex -5.000000e+00 -1.177500e+02 1.485000e+01
         vertex -5.000000e+00 -1.182803e+02 1.506967e+01
      endloop
   endfacet
   facet normal 0.000000e+00 9.238777e-01 -3.826879e-01
      outer loop
         vertex -5.000000e+00 -1.182803e+02 1.613033e+01
         vertex 1.099826e-14 -1.182803e+02 1.613033e+01
         vertex 1.250555e-14 -1.185000e+02 1.560000e+01
      endloop
   endfacet
   facet normal 0.000000e+00 -3.826846e-01 9.238791e-01
      outer loop
         vertex -5.000000e+00 -1.177500e+02 1.485000e+01
         vertex 1.463718e-14 -1.177500e+02 1.485000e+01
         vertex 1.401284e-14 -1.172197e+02 1.506967e+01
      endloop
   endfacet
   facet normal 0.000000e+00 -9.238777e-01 3.826879e-01
      outer loop
         vertex -5.000000e+00 -1.170000e+02 1.560000e+01
         vertex -5.000000e+00 -1.172197e+02 1.506967e+01
         vertex 1.250555e-14 -1.170000e+02 1.560000e+01
      endloop
   endfacet
   facet normal -0.000000e+00 -9.238777e-01 -3.826879e-01
      outer loop
         vertex -5.000000e+00 -1.170000e+02 1.560000e+01
         vertex 1.250555e-14 -1.170000e+02 1.560000e+01
         vertex 1.099826e-14 -1.172197e+02 1.613033e+01
      endloop
   endfacet
   facet normal -0.000000e+00 9.238785e-01 3.826860e-01
      outer loop
         vertex -5.000000e+00 -1.273839e+02 1.361612e+01
         vertex -5.000000e+00 -1.277500e+02 1.450000e+01
         vertex 1.563194e-14 -1.277500e+02 1.450000e+01
      endloop
   endfacet
   facet normal 0.000000e+00 -3.826845e-01 9.238791e-01
      outer loop
         vertex 1.814409e-14 -1.256161e+02 1.361612e+01
         vertex -5.000000e+00 -1.256161e+02 1.361612e+01
         vertex -5.000000e+00 -1.265000e+02 1.325000e+01
      endloop
   endfacet
   facet normal 0.000000e+00 -9.238785e-01 -3.826860e-01
      outer loop
         vertex 1.311979e-14 -1.256161e+02 1.538388e+01
         vertex -5.000000e+00 -1.256161e+02 1.538388e+01
         vertex -5.000000e+00 -1.252500e+02 1.450000e+01
      endloop
   endfacet
   facet normal 0.000000e+00 3.826845e-01 -9.238791e-01
      outer loop
         vertex 1.311979e-14 -1.273839e+02 1.538388e+01
         vertex -5.000000e+00 -1.273839e+02 1.538388e+01
         vertex -5.000000e+00 -1.265000e+02 1.575000e+01
      endloop
   endfacet
   facet normal 0.000000e+00 9.238785e-01 -3.826860e-01
      outer loop
         vertex -5.000000e+00 -1.273839e+02 1.538388e+01
         vertex 1.563194e-14 -1.277500e+02 1.450000e+01
         vertex -5.000000e+00 -1.277500e+02 1.450000e+01
      endloop
   endfacet
   facet normal -0.000000e+00 -3.826845e-01 -9.238791e-01
      outer loop
         vertex -5.000000e+00 -1.256161e+02 1.538388e+01
         vertex 1.311979e-14 -1.256161e+02 1.538388e+01
         vertex 1.207923e-14 -1.265000e+02 1.575000e+01
      endloop
   endfacet
   facet normal 0.000000e+00 -9.238785e-01 3.826860e-01
      outer loop
         vertex -5.000000e+00 -1.256161e+02 1.361612e+01
         vertex 1.814409e-14 -1.256161e+02 1.361612e+01
         vertex 1.563194e-14 -1.252500e+02 1.450000e+01
      endloop
   endfacet
   facet normal 0.000000e+00 3.826845e-01 9.238791e-01
      outer loop
         vertex -5.000000e+00 -1.273839e+02 1.361612e+01
         vertex 1.814409e-14 -1.273839e+02 1.361612e+01
         vertex 1.918465e-14 -1.265000e+02 1.325000e+01
      endloop
   endfacet
   facet normal -0.000000e+00 9.238785e-01 3.826860e-01
      outer loop
         vertex 1.814409e-14 -1.273839e+02 1.361612e+01
         vertex -5.000000e+00 -1.273839e+02 1.361612e+01
         vertex 1.563194e-14 -1.277500e+02 1.450000e+01
      endloop
   endfacet
   facet normal 0.000000e+00 3.826845e-01 -9.238791e-01
      outer loop
         vertex 1.207923e-14 -1.265000e+02 1.575000e+01
         vertex 1.311979e-14 -1.273839e+02 1.538388e+01
         vertex -5.000000e+00 -1.265000e+02 1.575000e+01
      endloop
   endfacet
   facet normal 0.000000e+00 -3.826845e-01 -9.238791e-01
      outer loop
         vertex -5.000000e+00 -1.265000e+02 1.575000e+01
         vertex -5.000000e+00 -1.256161e+02 1.538388e+01
         vertex 1.207923e-14 -1.265000e+02 1.575000e+01
      endloop
   endfacet
   facet normal -0.000000e+00 3.826845e-01 9.238791e-01
      outer loop
         vertex 1.918465e-14 -1.265000e+02 1.325000e+01
         vertex -5.000000e+00 -1.265000e+02 1.325000e+01
         vertex -5.000000e+00 -1.273839e+02 1.361612e+01
      endloop
   endfacet
   facet normal 0.000000e+00 9.238785e-01 -3.826860e-01
      outer loop
         vertex -5.000000e+00 -1.273839e+02 1.538388e+01
         vertex 1.311979e-14 -1.273839e+02 1.538388e+01
         vertex 1.563194e-14 -1.277500e+02 1.450000e+01
      endloop
   endfacet
   facet normal 0.000000e+00 -3.826845e-01 9.238791e-01
      outer loop
         vertex -5.000000e+00 -1.265000e+02 1.325000e+01
         vertex 1.918465e-14 -1.265000e+02 1.325000e+01
         vertex 1.814409e-14 -1.256161e+02 1.361612e+01
      endloop
   endfacet
   facet normal 0.000000e+00 -9.238785e-01 3.826860e-01
      outer loop
         vertex -5.000000e+00 -1.252500e+02 1.450000e+01
         vertex -5.000000e+00 -1.256161e+02 1.361612e+01
         vertex 1.563194e-14 -1.252500e+02 1.450000e+01
      endloop
   endfacet
   facet normal -0.000000e+00 -9.238785e-01 -3.826860e-01
      outer loop
         vertex -5.000000e+00 -1.252500e+02 1.450000e+01
         vertex 1.563194e-14 -1.252500e+02 1.450000e+01
         vertex 1.311979e-14 -1.256161e+02 1.538388e+01
      endloop
   endfacet
   facet normal 0.000000e+00 -9.659270e-01 2.588147e-01
      outer loop
         vertex -5.000000e+00 -1.315000e+02 1.735000e+01
         vertex 7.531753e-15 -1.315000e+02 1.735000e+01
         vertex 6.110668e-15 -1.313660e+02 1.785000e+01
      endloop
   endfacet
   facet normal 0.000000e+00 -2.588181e-01 9.659261e-01
      outer loop
         vertex 5.070361e-15 -1.310000e+02 1.821603e+01
         vertex 4.689582e-15 -1.305000e+02 1.835000e+01
         vertex -5.000000e+00 -1.305000e+02 1.835000e+01
      endloop
   endfacet
   facet normal 0.000000e+00 -7.071049e-01 7.071086e-01
      outer loop
         vertex -5.000000e+00 -1.310000e+02 1.821603e+01
         vertex -5.000000e+00 -1.313660e+02 1.785000e+01
         vertex 6.110668e-15 -1.313660e+02 1.785000e+01
      endloop
   endfacet
   facet normal 0.000000e+00 -9.659270e-01 2.588147e-01
      outer loop
         vertex -5.000000e+00 -1.315000e+02 1.735000e+01
         vertex 6.110668e-15 -1.313660e+02 1.785000e+01
         vertex -5.000000e+00 -1.313660e+02 1.785000e+01
      endloop
   endfacet
   facet normal 0.000000e+00 -7.071049e-01 7.071086e-01
      outer loop
         vertex 6.110668e-15 -1.313660e+02 1.785000e+01
         vertex 5.070361e-15 -1.310000e+02 1.821603e+01
         vertex -5.000000e+00 -1.310000e+02 1.821603e+01
      endloop
   endfacet
   facet normal 0.000000e+00 -2.588181e-01 9.659261e-01
      outer loop
         vertex 5.070361e-15 -1.310000e+02 1.821603e+01
         vertex -5.000000e+00 -1.305000e+02 1.835000e+01
         vertex -5.000000e+00 -1.310000e+02 1.821603e+01
      endloop
   endfacet
   facet normal 0.000000e+00 -0.000000e+00 1.000000e+00
      outer loop
         vertex -5.000000e+00 -1.305000e+02 1.835000e+01
         vertex 4.689582e-15 -1.305000e+02 1.835000e+01
         vertex 4.689582e-15 -1.177500e+02 1.835000e+01
      endloop
   endfacet
   facet normal 0.000000e+00 0.000000e+00 1.000000e+00
      outer loop
         vertex -5.000000e+00 -1.177500e+02 1.835000e+01
         vertex -5.000000e+00 -1.305000e+02 1.835000e+01
         vertex 4.689582e-15 -1.177500e+02 1.835000e+01
      endloop
   endfacet
   facet normal 0.000000e+00 2.588197e-01 9.659257e-01
      outer loop
         vertex -5.000000e+00 -1.177500e+02 1.835000e+01
         vertex 4.689582e-15 -1.177500e+02 1.835000e+01
         vertex 5.736723e-15 -1.163750e+02 1.798157e+01
      endloop
   endfacet
   facet normal 0.000000e+00 9.659257e-01 2.588197e-01
      outer loop
         vertex 8.597567e-15 -1.153684e+02 1.697500e+01
         vertex 1.250555e-14 -1.150000e+02 1.560000e+01
         vertex -5.000000e+00 -1.150000e+02 1.560000e+01
      endloop
   endfacet
   facet normal 0.000000e+00 7.071071e-01 -7.071064e-01
      outer loop
         vertex 1.641354e-14 -1.153684e+02 1.422500e+01
         vertex 1.927438e-14 -1.163750e+02 1.321843e+01
         vertex -5.000000e+00 -1.163750e+02 1.321843e+01
      endloop
   endfacet
   facet normal 0.000000e+00 2.588190e-01 -9.659258e-01
      outer loop
         vertex 2.032152e-14 -1.177500e+02 1.285000e+01
         vertex -5.000000e+00 -1.177500e+02 1.285000e+01
         vertex 1.927438e-14 -1.163750e+02 1.321843e+01
      endloop
   endfacet
   facet normal 0.000000e+00 9.659257e-01 -2.588197e-01
      outer loop
         vertex -5.000000e+00 -1.153684e+02 1.422500e+01
         vertex -5.000000e+00 -1.150000e+02 1.560000e+01
         vertex 1.250555e-14 -1.150000e+02 1.560000e+01
      endloop
   endfacet
   facet normal -0.000000e+00 7.071068e-01 7.071068e-01
      outer loop
         vertex -5.000000e+00 -1.153684e+02 1.697500e+01
         vertex -5.000000e+00 -1.163750e+02 1.798157e+01
         vertex 5.736723e-15 -1.163750e+02 1.798157e+01
      endloop
   endfacet
   facet normal 0.000000e+00 2.588197e-01 9.659257e-01
      outer loop
         vertex -5.000000e+00 -1.177500e+02 1.835000e+01
         vertex 5.736723e-15 -1.163750e+02 1.798157e+01
         vertex -5.000000e+00 -1.163750e+02 1.798157e+01
      endloop
   endfacet
   facet normal 0.000000e+00 2.588190e-01 -9.659258e-01
      outer loop
         vertex -5.000000e+00 -1.163750e+02 1.321843e+01
         vertex 1.927438e-14 -1.163750e+02 1.321843e+01
         vertex -5.000000e+00 -1.177500e+02 1.285000e+01
      endloop
   endfacet
   facet normal 0.000000e+00 7.071068e-01 7.071068e-01
      outer loop
         vertex 5.736723e-15 -1.163750e+02 1.798157e+01
         vertex 8.597567e-15 -1.153684e+02 1.697500e+01
         vertex -5.000000e+00 -1.153684e+02 1.697500e+01
      endloop
   endfacet
   facet normal 0.000000e+00 7.071071e-01 -7.071064e-01
      outer loop
         vertex -5.000000e+00 -1.163750e+02 1.321843e+01
         vertex -5.000000e+00 -1.153684e+02 1.422500e+01
         vertex 1.641354e-14 -1.153684e+02 1.422500e+01
      endloop
   endfacet
   facet normal 0.000000e+00 9.659257e-01 2.588197e-01
      outer loop
         vertex 8.597567e-15 -1.153684e+02 1.697500e+01
         vertex -5.000000e+00 -1.150000e+02 1.560000e+01
         vertex -5.000000e+00 -1.153684e+02 1.697500e+01
      endloop
   endfacet
   facet normal 0.000000e+00 9.659257e-01 -2.588197e-01
      outer loop
         vertex 1.250555e-14 -1.150000e+02 1.560000e+01
         vertex 1.641354e-14 -1.153684e+02 1.422500e+01
         vertex -5.000000e+00 -1.153684e+02 1.422500e+01
      endloop
   endfacet
   facet normal -0.000000e+00 -0.000000e+00 -1.000000e+00
      outer loop
         vertex -5.000000e+00 -1.177500e+02 1.285000e+01
         vertex 2.032152e-14 -1.177500e+02 1.285000e+01
         vertex 2.032152e-14 -1.205000e+02 1.285000e+01
      endloop
   endfacet
   facet normal 0.000000e+00 0.000000e+00 -1.000000e+00
      outer loop
         vertex -5.000000e+00 -1.205000e+02 1.285000e+01
         vertex -5.000000e+00 -1.177500e+02 1.285000e+01
         vertex 2.032152e-14 -1.205000e+02 1.285000e+01
      endloop
   endfacet
   facet normal 0.000000e+00 2.588198e-01 -9.659256e-01
      outer loop
         vertex -5.000000e+00 -1.205000e+02 1.285000e+01
         vertex 2.032152e-14 -1.205000e+02 1.285000e+01
         vertex 2.070230e-14 -1.210000e+02 1.271603e+01
      endloop
   endfacet
   facet normal 0.000000e+00 9.659270e-01 -2.588147e-01
      outer loop
         vertex 2.174261e-14 -1.213660e+02 1.235000e+01
         vertex 2.316369e-14 -1.215000e+02 1.185000e+01
         vertex -5.000000e+00 -1.215000e+02 1.185000e+01
      endloop
   endfacet
   facet normal 0.000000e+00 7.071040e-01 -7.071095e-01
      outer loop
         vertex -5.000000e+00 -1.213660e+02 1.235000e+01
         vertex -5.000000e+00 -1.210000e+02 1.271603e+01
         vertex 2.070230e-14 -1.210000e+02 1.271603e+01
      endloop
   endfacet
   facet normal 0.000000e+00 2.588198e-01 -9.659256e-01
      outer loop
         vertex -5.000000e+00 -1.205000e+02 1.285000e+01
         vertex 2.070230e-14 -1.210000e+02 1.271603e+01
         vertex -5.000000e+00 -1.210000e+02 1.271603e+01
      endloop
   endfacet
   facet normal 0.000000e+00 7.071040e-01 -7.071095e-01
      outer loop
         vertex 2.070230e-14 -1.210000e+02 1.271603e+01
         vertex 2.174261e-14 -1.213660e+02 1.235000e+01
         vertex -5.000000e+00 -1.213660e+02 1.235000e+01
      endloop
   endfacet
   facet normal 0.000000e+00 9.659270e-01 -2.588147e-01
      outer loop
         vertex 2.174261e-14 -1.213660e+02 1.235000e+01
         vertex -5.000000e+00 -1.215000e+02 1.185000e+01
         vertex -5.000000e+00 -1.213660e+02 1.235000e+01
      endloop
   endfacet
   facet normal 0.000000e+00 1.000000e+00 0.000000e+00
      outer loop
         vertex -5.000000e+00 -1.215000e+02 1.185000e+01
         vertex 2.316369e-14 -1.215000e+02 1.185000e+01
         vertex 2.415845e-14 -1.215000e+02 1.150000e+01
      endloop
   endfacet
   facet normal 0.000000e+00 1.000000e+00 0.000000e+00
      outer loop
         vertex -5.000000e+00 -1.215000e+02 1.150000e+01
         vertex -5.000000e+00 -1.215000e+02 1.185000e+01
         vertex 2.415845e-14 -1.215000e+02 1.150000e+01
      endloop
   endfacet
   facet normal 0.000000e+00 9.659270e-01 -2.588147e-01
      outer loop
         vertex -5.000000e+00 -1.215000e+02 1.150000e+01
         vertex 2.415845e-14 -1.215000e+02 1.150000e+01
         vertex 2.486900e-14 -1.215670e+02 1.125000e+01
      endloop
   endfacet
   facet normal 0.000000e+00 2.588181e-01 -9.659261e-01
      outer loop
         vertex 2.538915e-14 -1.217500e+02 1.106699e+01
         vertex 2.557954e-14 -1.220000e+02 1.100000e+01
         vertex -5.000000e+00 -1.220000e+02 1.100000e+01
      endloop
   endfacet
   facet normal 0.000000e+00 7.071049e-01 -7.071086e-01
      outer loop
         vertex -5.000000e+00 -1.217500e+02 1.106699e+01
         vertex -5.000000e+00 -1.215670e+02 1.125000e+01
         vertex 2.486900e-14 -1.215670e+02 1.125000e+01
      endloop
   endfacet
   facet normal 0.000000e+00 9.659270e-01 -2.588147e-01
      outer loop
         vertex -5.000000e+00 -1.215000e+02 1.150000e+01
         vertex 2.486900e-14 -1.215670e+02 1.125000e+01
         vertex -5.000000e+00 -1.215670e+02 1.125000e+01
      endloop
   endfacet
   facet normal 0.000000e+00 7.071049e-01 -7.071086e-01
      outer loop
         vertex 2.486900e-14 -1.215670e+02 1.125000e+01
         vertex 2.538915e-14 -1.217500e+02 1.106699e+01
         vertex -5.000000e+00 -1.217500e+02 1.106699e+01
      endloop
   endfacet
   facet normal 0.000000e+00 2.588181e-01 -9.659261e-01
      outer loop
         vertex 2.538915e-14 -1.217500e+02 1.106699e+01
         vertex -5.000000e+00 -1.220000e+02 1.100000e+01
         vertex -5.000000e+00 -1.217500e+02 1.106699e+01
      endloop
   endfacet
   facet normal -0.000000e+00 -0.000000e+00 -1.000000e+00
      outer loop
         vertex -5.000000e+00 -1.220000e+02 1.100000e+01
         vertex 2.557954e-14 -1.220000e+02 1.100000e+01
         vertex 2.557954e-14 -1.305000e+02 1.100000e+01
      endloop
   endfacet
   facet normal 0.000000e+00 0.000000e+00 -1.000000e+00
      outer loop
         vertex -5.000000e+00 -1.305000e+02 1.100000e+01
         vertex -5.000000e+00 -1.220000e+02 1.100000e+01
         vertex 2.557954e-14 -1.305000e+02 1.100000e+01
      endloop
   endfacet
   facet normal -0.000000e+00 -2.588198e-01 -9.659256e-01
      outer loop
         vertex -5.000000e+00 -1.305000e+02 1.100000e+01
         vertex 2.557954e-14 -1.305000e+02 1.100000e+01
         vertex 2.519876e-14 -1.310000e+02 1.113398e+01
      endloop
   endfacet
   facet normal -0.000000e+00 -9.659270e-01 -2.588147e-01
      outer loop
         vertex 2.415845e-14 -1.313660e+02 1.150000e+01
         vertex 2.273737e-14 -1.315000e+02 1.200000e+01
         vertex -5.000000e+00 -1.315000e+02 1.200000e+01
      endloop
   endfacet
   facet normal 0.000000e+00 -7.071040e-01 -7.071095e-01
      outer loop
         vertex -5.000000e+00 -1.313660e+02 1.150000e+01
         vertex -5.000000e+00 -1.310000e+02 1.113398e+01
         vertex 2.519876e-14 -1.310000e+02 1.113398e+01
      endloop
   endfacet
   facet normal -0.000000e+00 -2.588198e-01 -9.659256e-01
      outer loop
         vertex -5.000000e+00 -1.305000e+02 1.100000e+01
         vertex 2.519876e-14 -1.310000e+02 1.113398e+01
         vertex -5.000000e+00 -1.310000e+02 1.113398e+01
      endloop
   endfacet
   facet normal -0.000000e+00 -7.071040e-01 -7.071095e-01
      outer loop
         vertex 2.519876e-14 -1.310000e+02 1.113398e+01
         vertex 2.415845e-14 -1.313660e+02 1.150000e+01
         vertex -5.000000e+00 -1.313660e+02 1.150000e+01
      endloop
   endfacet
   facet normal 0.000000e+00 -9.659270e-01 -2.588147e-01
      outer loop
         vertex 2.415845e-14 -1.313660e+02 1.150000e+01
         vertex -5.000000e+00 -1.315000e+02 1.200000e+01
         vertex -5.000000e+00 -1.313660e+02 1.150000e+01
      endloop
   endfacet
   facet normal 0.000000e+00 -1.000000e+00 0.000000e+00
      outer loop
         vertex -5.000000e+00 -1.315000e+02 1.200000e+01
         vertex 2.273737e-14 -1.315000e+02 1.200000e+01
         vertex 7.531753e-15 -1.315000e+02 1.735000e+01
      endloop
   endfacet
   facet normal 0.000000e+00 -1.000000e+00 0.000000e+00
      outer loop
         vertex -5.000000e+00 -1.315000e+02 1.735000e+01
         vertex -5.000000e+00 -1.315000e+02 1.200000e+01
         vertex 7.531753e-15 -1.315000e+02 1.735000e+01
      endloop
   endfacet
   facet normal 1.000000e+00 5.785304e-22 2.842170e-15
      outer loop
         vertex 4.689582e-15 -1.305000e+02 1.835000e+01
         vertex 6.110668e-15 -1.313660e+02 1.785000e+01
         vertex 7.531753e-15 -1.315000e+02 1.735000e+01
      endloop
   endfacet
   facet normal 1.000000e+00 5.142570e-21 2.842162e-15
      outer loop
         vertex 6.110668e-15 -1.313660e+02 1.785000e+01
         vertex 4.689582e-15 -1.305000e+02 1.835000e+01
         vertex 5.070361e-15 -1.310000e+02 1.821603e+01
      endloop
   endfacet
   facet normal 1.000000e+00 -3.471444e-22 2.842174e-15
      outer loop
         vertex 1.099826e-14 -1.172197e+02 1.613033e+01
         vertex 8.597567e-15 -1.153684e+02 1.697500e+01
         vertex 5.736723e-15 -1.163750e+02 1.798157e+01
      endloop
   endfacet
   facet normal 1.000000e+00 0.000000e+00 2.842171e-15
      outer loop
         vertex 1.250555e-14 -1.170000e+02 1.560000e+01
         vertex 1.641354e-14 -1.153684e+02 1.422500e+01
         vertex 1.250555e-14 -1.150000e+02 1.560000e+01
      endloop
   endfacet
   facet normal 1.000000e+00 -2.010172e-22 2.842171e-15
      outer loop
         vertex 1.463718e-14 -1.177500e+02 1.485000e+01
         vertex 2.032152e-14 -1.177500e+02 1.285000e+01
         vertex 1.927438e-14 -1.163750e+02 1.321843e+01
      endloop
   endfacet
   facet normal 1.000000e+00 9.236451e-22 2.842170e-15
      outer loop
         vertex 1.250555e-14 -1.185000e+02 1.560000e+01
         vertex 2.070230e-14 -1.210000e+02 1.271603e+01
         vertex 2.032152e-14 -1.205000e+02 1.285000e+01
      endloop
   endfacet
   facet normal 1.000000e+00 -3.453348e-23 2.842172e-15
      outer loop
         vertex 1.814409e-14 -1.256161e+02 1.361612e+01
         vertex 2.316369e-14 -1.215000e+02 1.185000e+01
         vertex 2.174261e-14 -1.213660e+02 1.235000e+01
      endloop
   endfacet
   facet normal 1.000000e+00 0.000000e+00 2.842168e-15
      outer loop
         vertex 2.557954e-14 -1.220000e+02 1.100000e+01
         vertex 2.486900e-14 -1.215670e+02 1.125000e+01
         vertex 2.415845e-14 -1.215000e+02 1.150000e+01
      endloop
   endfacet
   facet normal 1.000000e+00 6.413113e-21 2.842157e-15
      outer loop
         vertex 2.486900e-14 -1.215670e+02 1.125000e+01
         vertex 2.557954e-14 -1.220000e+02 1.100000e+01
         vertex 2.538915e-14 -1.217500e+02 1.106699e+01
      endloop
   endfacet
   facet normal 1.000000e+00 9.256388e-22 2.842172e-15
      outer loop
         vertex 2.273737e-14 -1.315000e+02 1.200000e+01
         vertex 2.415845e-14 -1.313660e+02 1.150000e+01
         vertex 2.519876e-14 -1.310000e+02 1.113398e+01
      endloop
   endfacet
   facet normal 1.000000e+00 4.005015e-22 2.842170e-15
      outer loop
         vertex 2.273737e-14 -1.315000e+02 1.200000e+01
         vertex 1.814409e-14 -1.273839e+02 1.361612e+01
         vertex 1.563194e-14 -1.277500e+02 1.450000e+01
      endloop
   endfacet
   facet normal 1.000000e+00 5.216340e-22 2.842172e-15
      outer loop
         vertex 2.557954e-14 -1.220000e+02 1.100000e+01
         vertex 1.814409e-14 -1.256161e+02 1.361612e+01
         vertex 1.918465e-14 -1.265000e+02 1.325000e+01
      endloop
   endfacet
   facet normal 1.000000e+00 -1.232999e-22 2.842171e-15
      outer loop
         vertex 1.250555e-14 -1.185000e+02 1.560000e+01
         vertex 1.311979e-14 -1.256161e+02 1.538388e+01
         vertex 1.563194e-14 -1.252500e+02 1.450000e+01
      endloop
   endfacet
   facet normal 1.000000e+00 -2.640045e-23 2.842171e-15
      outer loop
         vertex 4.689582e-15 -1.305000e+02 1.835000e+01
         vertex 1.311979e-14 -1.273839e+02 1.538388e+01
         vertex 1.207923e-14 -1.265000e+02 1.575000e+01
      endloop
   endfacet
   facet normal 1.000000e+00 1.743018e-21 2.842169e-15
      outer loop
         vertex 2.032152e-14 -1.205000e+02 1.285000e+01
         vertex 1.401284e-14 -1.182803e+02 1.506967e+01
         vertex 1.250555e-14 -1.185000e+02 1.560000e+01
      endloop
   endfacet
   facet normal 1.000000e+00 1.183912e-21 2.842172e-15
      outer loop
         vertex 1.927438e-14 -1.163750e+02 1.321843e+01
         vertex 1.401284e-14 -1.172197e+02 1.506967e+01
         vertex 1.463718e-14 -1.177500e+02 1.485000e+01
      endloop
   endfacet
   facet normal 1.000000e+00 2.240621e-21 2.842168e-15
      outer loop
         vertex 8.597567e-15 -1.153684e+02 1.697500e+01
         vertex 1.099826e-14 -1.172197e+02 1.613033e+01
         vertex 1.250555e-14 -1.170000e+02 1.560000e+01
      endloop
   endfacet
   facet normal 1.000000e+00 3.176838e-21 2.842171e-15
      outer loop
         vertex 4.689582e-15 -1.177500e+02 1.835000e+01
         vertex 1.099826e-14 -1.182803e+02 1.613033e+01
         vertex 1.037392e-14 -1.177500e+02 1.635000e+01
      endloop
   endfacet
   facet normal 1.000000e+00 -1.081077e-22 2.842170e-15
      outer loop
         vertex 1.311979e-14 -1.273839e+02 1.538388e+01
         vertex 4.689582e-15 -1.305000e+02 1.835000e+01
         vertex 7.531753e-15 -1.315000e+02 1.735000e+01
      endloop
   endfacet
   facet normal 1.000000e+00 -0.000000e+00 2.842171e-15
      outer loop
         vertex 8.597567e-15 -1.153684e+02 1.697500e+01
         vertex 1.250555e-14 -1.170000e+02 1.560000e+01
         vertex 1.250555e-14 -1.150000e+02 1.560000e+01
      endloop
   endfacet
   facet normal 1.000000e+00 -9.460902e-23 2.842171e-15
      outer loop
         vertex 1.563194e-14 -1.252500e+02 1.450000e+01
         vertex 2.070230e-14 -1.210000e+02 1.271603e+01
         vertex 1.250555e-14 -1.185000e+02 1.560000e+01
      endloop
   endfacet
   facet normal 1.000000e+00 -9.457116e-22 2.842170e-15
      outer loop
         vertex 2.557954e-14 -1.220000e+02 1.100000e+01
         vertex 2.316369e-14 -1.215000e+02 1.185000e+01
         vertex 1.814409e-14 -1.256161e+02 1.361612e+01
      endloop
   endfacet
   facet normal 1.000000e+00 3.330579e-21 2.842173e-15
      outer loop
         vertex 2.557954e-14 -1.305000e+02 1.100000e+01
         vertex 2.273737e-14 -1.315000e+02 1.200000e+01
         vertex 2.519876e-14 -1.310000e+02 1.113398e+01
      endloop
   endfacet
   facet normal 1.000000e+00 0.000000e+00 2.842170e-15
      outer loop
         vertex 2.557954e-14 -1.305000e+02 1.100000e+01
         vertex 2.557954e-14 -1.220000e+02 1.100000e+01
         vertex 1.918465e-14 -1.265000e+02 1.325000e+01
      endloop
   endfacet
   facet normal 1.000000e+00 0.000000e+00 2.842171e-15
      outer loop
         vertex 2.032152e-14 -1.177500e+02 1.285000e+01
         vertex 1.401284e-14 -1.182803e+02 1.506967e+01
         vertex 2.032152e-14 -1.205000e+02 1.285000e+01
      endloop
   endfacet
   facet normal 1.000000e+00 -4.859399e-22 2.842172e-15
      outer loop
         vertex 1.311979e-14 -1.256161e+02 1.538388e+01
         vertex 1.099826e-14 -1.182803e+02 1.613033e+01
         vertex 4.689582e-15 -1.177500e+02 1.835000e+01
      endloop
   endfacet
   facet normal 1.000000e+00 -5.615078e-23 2.842171e-15
      outer loop
         vertex 2.174261e-14 -1.213660e+02 1.235000e+01
         vertex 2.070230e-14 -1.210000e+02 1.271603e+01
         vertex 1.563194e-14 -1.252500e+02 1.450000e+01
      endloop
   endfacet
   facet normal 1.000000e+00 -5.492865e-22 2.842171e-15
      outer loop
         vertex 1.814409e-14 -1.273839e+02 1.361612e+01
         vertex 2.557954e-14 -1.305000e+02 1.100000e+01
         vertex 1.918465e-14 -1.265000e+02 1.325000e+01
      endloop
   endfacet
   facet normal 1.000000e+00 -2.648119e-24 2.842167e-15
      outer loop
         vertex 1.250555e-14 -1.185000e+02 1.560000e+01
         vertex 1.099826e-14 -1.182803e+02 1.613033e+01
         vertex 1.311979e-14 -1.256161e+02 1.538388e+01
      endloop
   endfacet
   facet normal 1.000000e+00 0.000000e+00 2.842171e-15
      outer loop
         vertex 1.207923e-14 -1.265000e+02 1.575000e+01
         vertex 4.689582e-15 -1.177500e+02 1.835000e+01
         vertex 4.689582e-15 -1.305000e+02 1.835000e+01
      endloop
   endfacet
   facet normal 1.000000e+00 -3.141918e-22 2.842171e-15
      outer loop
         vertex 1.401284e-14 -1.172197e+02 1.506967e+01
         vertex 1.927438e-14 -1.163750e+02 1.321843e+01
         vertex 1.641354e-14 -1.153684e+02 1.422500e+01
      endloop
   endfacet
   facet normal 1.000000e+00 4.221971e-23 2.842171e-15
      outer loop
         vertex 1.563194e-14 -1.277500e+02 1.450000e+01
         vertex 7.531753e-15 -1.315000e+02 1.735000e+01
         vertex 2.273737e-14 -1.315000e+02 1.200000e+01
      endloop
   endfacet
   facet normal 1.000000e+00 1.805529e-23 2.842171e-15
      outer loop
         vertex 4.689582e-15 -1.177500e+02 1.835000e+01
         vertex 1.207923e-14 -1.265000e+02 1.575000e+01
         vertex 1.311979e-14 -1.256161e+02 1.538388e+01
      endloop
   endfacet
   facet normal 1.000000e+00 -1.667361e-21 2.842171e-15
      outer loop
         vertex 2.032152e-14 -1.177500e+02 1.285000e+01
         vertex 1.463718e-14 -1.177500e+02 1.485000e+01
         vertex 1.401284e-14 -1.182803e+02 1.506967e+01
      endloop
   endfacet
   facet normal 1.000000e+00 -1.778051e-21 2.842174e-15
      outer loop
         vertex 5.736723e-15 -1.163750e+02 1.798157e+01
         vertex 1.037392e-14 -1.177500e+02 1.635000e+01
         vertex 1.099826e-14 -1.172197e+02 1.613033e+01
      endloop
   endfacet
   facet normal 1.000000e+00 -4.161875e-22 2.842170e-15
      outer loop
         vertex 1.563194e-14 -1.252500e+02 1.450000e+01
         vertex 1.814409e-14 -1.256161e+02 1.361612e+01
         vertex 2.174261e-14 -1.213660e+02 1.235000e+01
      endloop
   endfacet
   facet normal 1.000000e+00 2.229034e-21 2.842171e-15
      outer loop
         vertex 5.736723e-15 -1.163750e+02 1.798157e+01
         vertex 4.689582e-15 -1.177500e+02 1.835000e+01
         vertex 1.037392e-14 -1.177500e+02 1.635000e+01
      endloop
   endfacet
   facet normal 1.000000e+00 4.047829e-22 2.842170e-15
      outer loop
         vertex 1.814409e-14 -1.273839e+02 1.361612e+01
         vertex 2.273737e-14 -1.315000e+02 1.200000e+01
         vertex 2.557954e-14 -1.305000e+02 1.100000e+01
      endloop
   endfacet
   facet normal 1.000000e+00 -1.742469e-21 2.842170e-15
      outer loop
         vertex 2.557954e-14 -1.220000e+02 1.100000e+01
         vertex 2.415845e-14 -1.215000e+02 1.150000e+01
         vertex 2.316369e-14 -1.215000e+02 1.185000e+01
      endloop
   endfacet
   facet normal 1.000000e+00 -1.242893e-21 2.842169e-15
      outer loop
         vertex 1.641354e-14 -1.153684e+02 1.422500e+01
         vertex 1.250555e-14 -1.170000e+02 1.560000e+01
         vertex 1.401284e-14 -1.172197e+02 1.506967e+01
      endloop
   endfacet
   facet normal 1.000000e+00 1.795043e-22 2.842171e-15
      outer loop
         vertex 1.311979e-14 -1.273839e+02 1.538388e+01
         vertex 7.531753e-15 -1.315000e+02 1.735000e+01
         vertex 1.563194e-14 -1.277500e+02 1.450000e+01
      endloop
   endfacet
   facet normal -1.000000e+00 0.000000e+00 0.000000e+00
      outer loop
         vertex -5.000000e+00 -1.315000e+02 1.200000e+01
         vertex -5.000000e+00 -1.315000e+02 1.735000e+01
         vertex -5.000000e+00 -1.277500e+02 1.450000e+01
      endloop
   endfacet
   facet normal -1.000000e+00 0.000000e+00 0.000000e+00
      outer loop
         vertex -5.000000e+00 -1.313660e+02 1.785000e+01
         vertex -5.000000e+00 -1.310000e+02 1.821603e+01
         vertex -5.000000e+00 -1.315000e+02 1.735000e+01
      endloop
   endfacet
   facet normal -1.000000e+00 -0.000000e+00 0.000000e+00
      outer loop
         vertex -5.000000e+00 -1.177500e+02 1.835000e+01
         vertex -5.000000e+00 -1.163750e+02 1.798157e+01
         vertex -5.000000e+00 -1.177500e+02 1.635000e+01
      endloop
   endfacet
   facet normal -1.000000e+00 0.000000e+00 0.000000e+00
      outer loop
         vertex -5.000000e+00 -1.153684e+02 1.697500e+01
         vertex -5.000000e+00 -1.150000e+02 1.560000e+01
         vertex -5.000000e+00 -1.170000e+02 1.560000e+01
      endloop
   endfacet
   facet normal -1.000000e+00 0.000000e+00 0.000000e+00
      outer loop
         vertex -5.000000e+00 -1.153684e+02 1.422500e+01
         vertex -5.000000e+00 -1.163750e+02 1.321843e+01
         vertex -5.000000e+00 -1.172197e+02 1.506967e+01
      endloop
   endfacet
   facet normal -1.000000e+00 0.000000e+00 0.000000e+00
      outer loop
         vertex -5.000000e+00 -1.177500e+02 1.285000e+01
         vertex -5.000000e+00 -1.205000e+02 1.285000e+01
         vertex -5.000000e+00 -1.182803e+02 1.506967e+01
      endloop
   endfacet
   facet normal -1.000000e+00 0.000000e+00 0.000000e+00
      outer loop
         vertex -5.000000e+00 -1.210000e+02 1.271603e+01
         vertex -5.000000e+00 -1.213660e+02 1.235000e+01
         vertex -5.000000e+00 -1.252500e+02 1.450000e+01
      endloop
   endfacet
   facet normal -1.000000e+00 -0.000000e+00 0.000000e+00
      outer loop
         vertex -5.000000e+00 -1.215000e+02 1.185000e+01
         vertex -5.000000e+00 -1.215000e+02 1.150000e+01
         vertex -5.000000e+00 -1.220000e+02 1.100000e+01
      endloop
   endfacet
   facet normal -1.000000e+00 0.000000e+00 0.000000e+00
      outer loop
         vertex -5.000000e+00 -1.215670e+02 1.125000e+01
         vertex -5.000000e+00 -1.217500e+02 1.106699e+01
         vertex -5.000000e+00 -1.215000e+02 1.150000e+01
      endloop
   endfacet
   facet normal -1.000000e+00 0.000000e+00 0.000000e+00
      outer loop
         vertex -5.000000e+00 -1.305000e+02 1.100000e+01
         vertex -5.000000e+00 -1.310000e+02 1.113398e+01
         vertex -5.000000e+00 -1.315000e+02 1.200000e+01
      endloop
   endfacet
   facet normal -1.000000e+00 0.000000e+00 0.000000e+00
      outer loop
         vertex -5.000000e+00 -1.313660e+02 1.150000e+01
         vertex -5.000000e+00 -1.315000e+02 1.200000e+01
         vertex -5.000000e+00 -1.310000e+02 1.113398e+01
      endloop
   endfacet
   facet normal -1.000000e+00 -0.000000e+00 0.000000e+00
      outer loop
         vertex -5.000000e+00 -1.273839e+02 1.361612e+01
         vertex -5.000000e+00 -1.265000e+02 1.325000e+01
         vertex -5.000000e+00 -1.305000e+02 1.100000e+01
      endloop
   endfacet
   facet normal -1.000000e+00 0.000000e+00 -0.000000e+00
      outer loop
         vertex -5.000000e+00 -1.256161e+02 1.361612e+01
         vertex -5.000000e+00 -1.252500e+02 1.450000e+01
         vertex -5.000000e+00 -1.213660e+02 1.235000e+01
      endloop
   endfacet
   facet normal -1.000000e+00 0.000000e+00 0.000000e+00
      outer loop
         vertex -5.000000e+00 -1.256161e+02 1.538388e+01
         vertex -5.000000e+00 -1.265000e+02 1.575000e+01
         vertex -5.000000e+00 -1.177500e+02 1.835000e+01
      endloop
   endfacet
   facet normal -1.000000e+00 -0.000000e+00 0.000000e+00
      outer loop
         vertex -5.000000e+00 -1.182803e+02 1.613033e+01
         vertex -5.000000e+00 -1.185000e+02 1.560000e+01
         vertex -5.000000e+00 -1.256161e+02 1.538388e+01
      endloop
   endfacet
   facet normal -1.000000e+00 -0.000000e+00 -0.000000e+00
      outer loop
         vertex -5.000000e+00 -1.182803e+02 1.506967e+01
         vertex -5.000000e+00 -1.177500e+02 1.485000e+01
         vertex -5.000000e+00 -1.177500e+02 1.285000e+01
      endloop
   endfacet
   facet normal -1.000000e+00 0.000000e+00 -0.000000e+00
      outer loop
         vertex -5.000000e+00 -1.172197e+02 1.506967e+01
         vertex -5.000000e+00 -1.170000e+02 1.560000e+01
         vertex -5.000000e+00 -1.153684e+02 1.422500e+01
      endloop
   endfacet
   facet normal -1.000000e+00 0.000000e+00 0.000000e+00
      outer loop
         vertex -5.000000e+00 -1.172197e+02 1.613033e+01
         vertex -5.000000e+00 -1.177500e+02 1.635000e+01
         vertex -5.000000e+00 -1.163750e+02 1.798157e+01
      endloop
   endfacet
   facet normal -1.000000e+00 0.000000e+00 -0.000000e+00
      outer loop
         vertex -5.000000e+00 -1.315000e+02 1.200000e+01
         vertex -5.000000e+00 -1.277500e+02 1.450000e+01
         vertex -5.000000e+00 -1.273839e+02 1.361612e+01
      endloop
   endfacet
   facet normal -1.000000e+00 -0.000000e+00 0.000000e+00
      outer loop
         vertex -5.000000e+00 -1.177500e+02 1.835000e+01
         vertex -5.000000e+00 -1.177500e+02 1.635000e+01
         vertex -5.000000e+00 -1.182803e+02 1.613033e+01
      endloop
   endfacet
   facet normal -1.000000e+00 0.000000e+00 0.000000e+00
      outer loop
         vertex -5.000000e+00 -1.172197e+02 1.506967e+01
         vertex -5.000000e+00 -1.163750e+02 1.321843e+01
         vertex -5.000000e+00 -1.177500e+02 1.485000e+01
      endloop
   endfacet
   facet normal -1.000000e+00 0.000000e+00 0.000000e+00
      outer loop
         vertex -5.000000e+00 -1.215000e+02 1.185000e+01
         vertex -5.000000e+00 -1.220000e+02 1.100000e+01
         vertex -5.000000e+00 -1.256161e+02 1.361612e+01
      endloop
   endfacet
   facet normal -1.000000e+00 -0.000000e+00 0.000000e+00
      outer loop
         vertex -5.000000e+00 -1.215000e+02 1.150000e+01
         vertex -5.000000e+00 -1.217500e+02 1.106699e+01
         vertex -5.000000e+00 -1.220000e+02 1.100000e+01
      endloop
   endfacet
   facet normal -1.000000e+00 -0.000000e+00 0.000000e+00
      outer loop
         vertex -5.000000e+00 -1.256161e+02 1.361612e+01
         vertex -5.000000e+00 -1.213660e+02 1.235000e+01
         vertex -5.000000e+00 -1.215000e+02 1.185000e+01
      endloop
   endfacet
   facet normal -1.000000e+00 0.000000e+00 0.000000e+00
      outer loop
         vertex -5.000000e+00 -1.182803e+02 1.613033e+01
         vertex -5.000000e+00 -1.256161e+02 1.538388e+01
         vertex -5.000000e+00 -1.177500e+02 1.835000e+01
      endloop
   endfacet
   facet normal -1.000000e+00 0.000000e+00 0.000000e+00
      outer loop
         vertex -5.000000e+00 -1.153684e+02 1.422500e+01
         vertex -5.000000e+00 -1.170000e+02 1.560000e+01
         vertex -5.000000e+00 -1.150000e+02 1.560000e+01
      endloop
   endfacet
   facet normal -1.000000e+00 0.000000e+00 0.000000e+00
      outer loop
         vertex -5.000000e+00 -1.256161e+02 1.361612e+01
         vertex -5.000000e+00 -1.220000e+02 1.100000e+01
         vertex -5.000000e+00 -1.265000e+02 1.325000e+01
      endloop
   endfacet
   facet normal -1.000000e+00 0.000000e+00 0.000000e+00
      outer loop
         vertex -5.000000e+00 -1.310000e+02 1.821603e+01
         vertex -5.000000e+00 -1.305000e+02 1.835000e+01
         vertex -5.000000e+00 -1.315000e+02 1.735000e+01
      endloop
   endfacet
   facet normal -1.000000e+00 -0.000000e+00 0.000000e+00
      outer loop
         vertex -5.000000e+00 -1.163750e+02 1.798157e+01
         vertex -5.000000e+00 -1.153684e+02 1.697500e+01
         vertex -5.000000e+00 -1.172197e+02 1.613033e+01
      endloop
   endfacet
   facet normal -1.000000e+00 0.000000e+00 0.000000e+00
      outer loop
         vertex -5.000000e+00 -1.205000e+02 1.285000e+01
         vertex -5.000000e+00 -1.210000e+02 1.271603e+01
         vertex -5.000000e+00 -1.185000e+02 1.560000e+01
      endloop
   endfacet
   facet normal -1.000000e+00 0.000000e+00 0.000000e+00
      outer loop
         vertex -5.000000e+00 -1.273839e+02 1.538388e+01
         vertex -5.000000e+00 -1.277500e+02 1.450000e+01
         vertex -5.000000e+00 -1.315000e+02 1.735000e+01
      endloop
   endfacet
   facet normal -1.000000e+00 0.000000e+00 0.000000e+00
      outer loop
         vertex -5.000000e+00 -1.265000e+02 1.575000e+01
         vertex -5.000000e+00 -1.273839e+02 1.538388e+01
         vertex -5.000000e+00 -1.305000e+02 1.835000e+01
      endloop
   endfacet
   facet normal -1.000000e+00 0.000000e+00 0.000000e+00
      outer loop
         vertex -5.000000e+00 -1.170000e+02 1.560000e+01
         vertex -5.000000e+00 -1.172197e+02 1.613033e+01
         vertex -5.000000e+00 -1.153684e+02 1.697500e+01
      endloop
   endfacet
   facet normal -1.000000e+00 0.000000e+00 0.000000e+00
      outer loop
         vertex -5.000000e+00 -1.210000e+02 1.271603e+01
         vertex -5.000000e+00 -1.252500e+02 1.450000e+01
         vertex -5.000000e+00 -1.185000e+02 1.560000e+01
      endloop
   endfacet
   facet normal -1.000000e+00 0.000000e+00 0.000000e+00
      outer loop
         vertex -5.000000e+00 -1.273839e+02 1.361612e+01
         vertex -5.000000e+00 -1.305000e+02 1.100000e+01
         vertex -5.000000e+00 -1.315000e+02 1.200000e+01
      endloop
   endfacet
   facet normal -1.000000e+00 0.000000e+00 0.000000e+00
      outer loop
         vertex -5.000000e+00 -1.256161e+02 1.538388e+01
         vertex -5.000000e+00 -1.185000e+02 1.560000e+01
         vertex -5.000000e+00 -1.252500e+02 1.450000e+01
      endloop
   endfacet
   facet normal -1.000000e+00 0.000000e+00 0.000000e+00
      outer loop
         vertex -5.000000e+00 -1.265000e+02 1.325000e+01
         vertex -5.000000e+00 -1.220000e+02 1.100000e+01
         vertex -5.000000e+00 -1.305000e+02 1.100000e+01
      endloop
   endfacet
   facet normal -1.000000e+00 0.000000e+00 0.000000e+00
      outer loop
         vertex -5.000000e+00 -1.265000e+02 1.575000e+01
         vertex -5.000000e+00 -1.305000e+02 1.835000e+01
         vertex -5.000000e+00 -1.177500e+02 1.835000e+01
      endloop
   endfacet
   facet normal -1.000000e+00 0.000000e+00 0.000000e+00
      outer loop
         vertex -5.000000e+00 -1.163750e+02 1.321843e+01
         vertex -5.000000e+00 -1.177500e+02 1.285000e+01
         vertex -5.000000e+00 -1.177500e+02 1.485000e+01
      endloop
   endfacet
   facet normal -1.000000e+00 0.000000e+00 0.000000e+00
      outer loop
         vertex -5.000000e+00 -1.182803e+02 1.506967e+01
         vertex -5.000000e+00 -1.205000e+02 1.285000e+01
         vertex -5.000000e+00 -1.185000e+02 1.560000e+01
      endloop
   endfacet
   facet normal -1.000000e+00 0.000000e+00 0.000000e+00
      outer loop
         vertex -5.000000e+00 -1.305000e+02 1.835000e+01
         vertex -5.000000e+00 -1.273839e+02 1.538388e+01
         vertex -5.000000e+00 -1.315000e+02 1.735000e+01
      endloop
   endfacet
endsolid
